<svg xmlns="http://www.w3.org/2000/svg" width="27.386" height="27.182" viewBox="0 0 27.386 27.182">
  <path id="Path_764" data-name="Path 764" d="M32.64,22.179A2.453,2.453,0,0,0,29.5,20.8a22.51,22.51,0,0,1-2.289.7l-1.3-5.908L29.82,5.064a2.358,2.358,0,0,0-1.46-3.041,2.452,2.452,0,0,0-3.118,1.424L23.127,9.135H11.953a.891.891,0,1,0,0,1.781h2.283v2.193a2.4,2.4,0,0,0-1.793,1.8L11,21.5a22.654,22.654,0,0,1-2.288-.7A2.455,2.455,0,0,0,5.57,22.18a2.357,2.357,0,0,0,1.417,3.06,36.109,36.109,0,0,0,12.118,1.942A36.125,36.125,0,0,0,31.224,25.24,2.358,2.358,0,0,0,32.64,22.179Zm-13.535.254c-1.12,0-2.224-.056-3.3-.152l.989-4.5h4.618l.994,4.505C21.327,22.378,20.224,22.433,19.105,22.433Zm2.575-9.4H16.061V10.915h6.4Zm.062-7.282v.019a2,2,0,0,1-2,2v.464a.639.639,0,0,1-1.278,0V7.717a4.364,4.364,0,0,1-1.717-.7.665.665,0,0,1-.28-.543.672.672,0,0,1,.691-.664.711.711,0,0,1,.421.131,2.893,2.893,0,0,0,1.721.59c.6,0,.969-.234.969-.618V5.888c0-.365-.231-.551-1.355-.833-1.354-.336-2.228-.7-2.228-2V3.032a1.955,1.955,0,0,1,1.776-1.92V.624a.639.639,0,0,1,1.278,0v.492a3.831,3.831,0,0,1,1.43.522.652.652,0,0,1,.329.571.674.674,0,0,1-.692.665.718.718,0,0,1-.373-.1,2.857,2.857,0,0,0-1.413-.441c-.567,0-.864.253-.864.571v.019c0,.43.288.571,1.45.861C20.971,4.128,21.742,4.606,21.742,5.748Z" transform="translate(-5.412)" fill="#ec592d"/>
</svg>
