<svg width="440" height="352" viewBox="0 0 440 352" fill="none" xmlns="http://www.w3.org/2000/svg">
<path d="M59 63H56V68H59V63Z" fill="#F2F2F2"/>
<path d="M70 61H67V67H70V61Z" fill="#F2F2F2"/>
<path d="M77 61H73V67H77V61Z" fill="#F2F2F2"/>
<path d="M77 77H73V83H77V77Z" fill="#F2F2F2"/>
<path d="M83 69H80V75H83V69Z" fill="#F2F2F2"/>
<path d="M83 78H80V84H83V78Z" fill="#F2F2F2"/>
<path d="M77 95H73V101H77V95Z" fill="#F2F2F2"/>
<path d="M83 103H80V109H83V103Z" fill="#F2F2F2"/>
<path d="M77 136H73V142H77V136Z" fill="#F2F2F2"/>
<path d="M70 103H67V109H70V103Z" fill="#F2F2F2"/>
<path d="M59 72H56V77H59V72Z" fill="#F2F2F2"/>
<path d="M59 156H56V161H59V156Z" fill="#F2F2F2"/>
<path d="M59 173H56V178H59V173Z" fill="#F2F2F2"/>
<path d="M59 182H56V187H59V182Z" fill="#F2F2F2"/>
<path d="M77 89H73V90H77V89Z" fill="#F2F2F2"/>
<path d="M59 131H54V132H59V131Z" fill="#F2F2F2"/>
<path d="M77 174H73V175H77V174Z" fill="#F2F2F2"/>
<path d="M72 190H67V191H72V190Z" fill="#F2F2F2"/>
<path d="M56 87V88.2499H57.1998V90.7501H56V92H59V87H56Z" fill="#F2F2F2"/>
<path d="M67 77V78.4999H68.1998V81.5001H67V83H70V77H67Z" fill="#F2F2F2"/>
<path d="M80 86V87.5002H81.1998V90.5002H80V92H83V86H80Z" fill="#F2F2F2"/>
<path d="M80 112V113.5H81.1998V116.5H80V118H83V112H80Z" fill="#F2F2F2"/>
<path d="M80 121V122.5H81.1998V125.5H80V127H83V121H80Z" fill="#F2F2F2"/>
<path d="M80 94V95.2498H81.1998V97.7498H80V99H83V94H80Z" fill="#F2F2F2"/>
<path d="M73 69V70.5002H74.6001V73.4998H73V75H77V69H73Z" fill="#F2F2F2"/>
<path d="M77 112H73V118H77V112Z" fill="#F2F2F2"/>
<path d="M77 128H73V134H77V128Z" fill="#F2F2F2"/>
<path d="M73 120V121.5H74.6001V124.5H73V126H77V120H73Z" fill="#F2F2F2"/>
<path d="M67 86V87.5002H68.1998V90.5002H67V92H70V86H67Z" fill="#F2F2F2"/>
<path d="M67 95V96.5002H68.1998V99.4998H67V101H70V95H67Z" fill="#F2F2F2"/>
<path d="M70 121H67V127H70V121Z" fill="#F2F2F2"/>
<path d="M67 112V113.5H68.1998V116.5H67V118H70V112H67Z" fill="#F2F2F2"/>
<path d="M70 139H67V144H70V139Z" fill="#F2F2F2"/>
<path d="M67 130V131.25H68.1998V133.75H67V135H70V130H67Z" fill="#F2F2F2"/>
<path d="M70 156H67V161H70V156Z" fill="#F2F2F2"/>
<path d="M77 154H73V160H77V154Z" fill="#F2F2F2"/>
<path d="M67 147V148.5H68.1998V151.5H67V153H70V147H67Z" fill="#F2F2F2"/>
<path d="M80 147V148.5H81.1998V151.5H80V153H83V147H80Z" fill="#F2F2F2"/>
<path d="M117 69H114V75H117V69Z" fill="#F2F2F2"/>
<path d="M117 78H114V84H117V78Z" fill="#F2F2F2"/>
<path d="M117 103H114V109H117V103Z" fill="#F2F2F2"/>
<path d="M114 86V87.5002H115.2V90.5002H114V92H117V86H114Z" fill="#F2F2F2"/>
<path d="M114 112V113.5H115.2V116.5H114V118H117V112H114Z" fill="#F2F2F2"/>
<path d="M114 121V122.5H115.2V125.5H114V127H117V121H114Z" fill="#F2F2F2"/>
<path d="M114 94V95.2498H115.2V97.7498H114V99H117V94H114Z" fill="#F2F2F2"/>
<path d="M114 147V148.5H115.2V151.5H114V153H117V147H114Z" fill="#F2F2F2"/>
<path d="M70 174H67V179H70V174Z" fill="#F2F2F2"/>
<path d="M77 163H73V169H77V163Z" fill="#F2F2F2"/>
<path d="M70 196H67V201H70V196Z" fill="#F2F2F2"/>
<path d="M77 180H73V186H77V180Z" fill="#F2F2F2"/>
<path d="M67 165V166.25H68.1998V168.75H67V170H70V165H67Z" fill="#F2F2F2"/>
<path d="M67 205V206.5H68.1998V209.5H67V211H70V205H67Z" fill="#F2F2F2"/>
<path d="M107 61H104V67H107V61Z" fill="#F2F2F2"/>
<path d="M107 103H104V109H107V103Z" fill="#F2F2F2"/>
<path d="M109 190H104V191H109V190Z" fill="#F2F2F2"/>
<path d="M104 77V78.4999H105.2V81.5001H104V83H107V77H104Z" fill="#F2F2F2"/>
<path d="M104 86V87.5002H105.2V90.5002H104V92H107V86H104Z" fill="#F2F2F2"/>
<path d="M104 95V96.5002H105.2V99.4998H104V101H107V95H104Z" fill="#F2F2F2"/>
<path d="M107 121H104V127H107V121Z" fill="#F2F2F2"/>
<path d="M104 112V113.5H105.2V116.5H104V118H107V112H104Z" fill="#F2F2F2"/>
<path d="M107 139H104V144H107V139Z" fill="#F2F2F2"/>
<path d="M104 130V131.25H105.2V133.75H104V135H107V130H104Z" fill="#F2F2F2"/>
<path d="M107 156H104V161H107V156Z" fill="#F2F2F2"/>
<path d="M104 147V148.5H105.2V151.5H104V153H107V147H104Z" fill="#F2F2F2"/>
<path d="M107 174H104V179H107V174Z" fill="#F2F2F2"/>
<path d="M107 196H104V201H107V196Z" fill="#F2F2F2"/>
<path d="M104 165V166.25H105.2V168.75H104V170H107V165H104Z" fill="#F2F2F2"/>
<path d="M104 205V206.5H105.2V209.5H104V211H107V205H104Z" fill="#F2F2F2"/>
<path d="M124 61H120V67H124V61Z" fill="#F2F2F2"/>
<path d="M124 103H120V109H124V103Z" fill="#F2F2F2"/>
<path d="M125 190H120V191H125V190Z" fill="#F2F2F2"/>
<path d="M120 77V78.4999H121.6V81.5001H120V83H124V77H120Z" fill="#F2F2F2"/>
<path d="M120 86V87.5002H121.6V90.5002H120V92H124V86H120Z" fill="#F2F2F2"/>
<path d="M120 95V96.5002H121.6V99.4998H120V101H124V95H120Z" fill="#F2F2F2"/>
<path d="M124 121H120V127H124V121Z" fill="#F2F2F2"/>
<path d="M120 112V113.5H121.6V116.5H120V118H124V112H120Z" fill="#F2F2F2"/>
<path d="M124 139H120V144H124V139Z" fill="#F2F2F2"/>
<path d="M120 130V131.25H121.6V133.75H120V135H124V130H120Z" fill="#F2F2F2"/>
<path d="M124 156H120V161H124V156Z" fill="#F2F2F2"/>
<path d="M120 147V148.5H121.6V151.5H120V153H124V147H120Z" fill="#F2F2F2"/>
<path d="M124 174H120V179H124V174Z" fill="#F2F2F2"/>
<path d="M124 196H120V201H124V196Z" fill="#F2F2F2"/>
<path d="M120 165V166.25H121.6V168.75H120V170H124V165H120Z" fill="#F2F2F2"/>
<path d="M120 205V206.5H121.6V209.5H120V211H124V205H120Z" fill="#F2F2F2"/>
<path d="M73 196V197.25H74.6001V199.75H73V201H77V196H73Z" fill="#F2F2F2"/>
<path d="M73 205V206.5H74.6001V209.5H73V211H77V205H73Z" fill="#F2F2F2"/>
<path d="M56 103V104.5H57.1998V107.5H56V109H59V103H56Z" fill="#F2F2F2"/>
<path d="M56 138V139.25H57.1998V141.75H56V143H59V138H56Z" fill="#F2F2F2"/>
<path d="M56 146V147.5H57.1998V150.5H56V152H59V146H56Z" fill="#F2F2F2"/>
<path d="M56 164V165.25H57.1998V167.75H56V169H59V164H56Z" fill="#F2F2F2"/>
<path d="M56 189V190.25H57.1998V192.75H56V194H59V189H56Z" fill="#F2F2F2"/>
<path d="M56 196V197.25H57.1998V199.75H56V201H59V196H56Z" fill="#F2F2F2"/>
<path d="M94 63H91V68H94V63Z" fill="#F2F2F2"/>
<path d="M94 72H91V77H94V72Z" fill="#F2F2F2"/>
<path d="M94 131H89V132H94V131Z" fill="#F2F2F2"/>
<path d="M91 87V88.2499H92.1998V90.7501H91V92H94V87H91Z" fill="#F2F2F2"/>
<path d="M91 103V104.5H92.1998V107.5H91V109H94V103H91Z" fill="#F2F2F2"/>
<path d="M91 138V139.25H92.1998V141.75H91V143H94V138H91Z" fill="#F2F2F2"/>
<path d="M132 121H129V127H132V121Z" fill="#F2F2F2"/>
<path d="M132 130H129V135H132V130Z" fill="#F2F2F2"/>
<path d="M132 139H128V140H132V139Z" fill="#F2F2F2"/>
<path d="M132 182H128V183H132V182Z" fill="#F2F2F2"/>
<path d="M129 145V146.25H130.2V148.75H129V150H132V145H129Z" fill="#F2F2F2"/>
<path d="M129 162V163.25H130.2V165.75H129V167H132V162H129Z" fill="#F2F2F2"/>
<path d="M129 196V197.25H130.2V199.75H129V201H132V196H129Z" fill="#F2F2F2"/>
<path d="M143 63H139V68H143V63Z" fill="#F2F2F2"/>
<path d="M154 61H151V67H154V61Z" fill="#F2F2F2"/>
<path d="M160 61H157V67H160V61Z" fill="#F2F2F2"/>
<path d="M160 77H157V83H160V77Z" fill="#F2F2F2"/>
<path d="M167 69H164V75H167V69Z" fill="#F2F2F2"/>
<path d="M167 78H164V84H167V78Z" fill="#F2F2F2"/>
<path d="M160 95H157V101H160V95Z" fill="#F2F2F2"/>
<path d="M167 103H164V109H167V103Z" fill="#F2F2F2"/>
<path d="M160 136H157V142H160V136Z" fill="#F2F2F2"/>
<path d="M154 103H151V109H154V103Z" fill="#F2F2F2"/>
<path d="M143 72H139V77H143V72Z" fill="#F2F2F2"/>
<path d="M143 156H139V161H143V156Z" fill="#F2F2F2"/>
<path d="M143 173H139V178H143V173Z" fill="#F2F2F2"/>
<path d="M143 182H139V187H143V182Z" fill="#F2F2F2"/>
<path d="M161 89H156V90H161V89Z" fill="#F2F2F2"/>
<path d="M143 131H138V132H143V131Z" fill="#F2F2F2"/>
<path d="M161 174H156V175H161V174Z" fill="#F2F2F2"/>
<path d="M155 190H151V191H155V190Z" fill="#F2F2F2"/>
<path d="M139 87V88.2499H140.6V90.7501H139V92H143V87H139Z" fill="#F2F2F2"/>
<path d="M151 77V78.4999H152.2V81.5001H151V83H154V77H151Z" fill="#F2F2F2"/>
<path d="M164 86V87.5002H165.2V90.5002H164V92H167V86H164Z" fill="#F2F2F2"/>
<path d="M164 112V113.5H165.2V116.5H164V118H167V112H164Z" fill="#F2F2F2"/>
<path d="M164 121V122.5H165.2V125.5H164V127H167V121H164Z" fill="#F2F2F2"/>
<path d="M164 94V95.2498H165.2V97.7498H164V99H167V94H164Z" fill="#F2F2F2"/>
<path d="M157 69V70.5002H158.2V73.4998H157V75H160V69H157Z" fill="#F2F2F2"/>
<path d="M160 112H157V118H160V112Z" fill="#F2F2F2"/>
<path d="M160 128H157V134H160V128Z" fill="#F2F2F2"/>
<path d="M157 120V121.5H158.2V124.5H157V126H160V120H157Z" fill="#F2F2F2"/>
<path d="M151 86V87.5002H152.2V90.5002H151V92H154V86H151Z" fill="#F2F2F2"/>
<path d="M151 95V96.5002H152.2V99.4998H151V101H154V95H151Z" fill="#F2F2F2"/>
<path d="M154 121H151V127H154V121Z" fill="#F2F2F2"/>
<path d="M151 112V113.5H152.2V116.5H151V118H154V112H151Z" fill="#F2F2F2"/>
<path d="M154 139H151V144H154V139Z" fill="#F2F2F2"/>
<path d="M151 130V131.25H152.2V133.75H151V135H154V130H151Z" fill="#F2F2F2"/>
<path d="M154 156H151V161H154V156Z" fill="#F2F2F2"/>
<path d="M160 154H157V160H160V154Z" fill="#F2F2F2"/>
<path d="M151 147V148.5H152.2V151.5H151V153H154V147H151Z" fill="#F2F2F2"/>
<path d="M164 147V148.5H165.2V151.5H164V153H167V147H164Z" fill="#F2F2F2"/>
<path d="M201 69H198V75H201V69Z" fill="#F2F2F2"/>
<path d="M201 78H198V84H201V78Z" fill="#F2F2F2"/>
<path d="M201 103H198V109H201V103Z" fill="#F2F2F2"/>
<path d="M198 86V87.5002H199.2V90.5002H198V92H201V86H198Z" fill="#F2F2F2"/>
<path d="M198 112V113.5H199.2V116.5H198V118H201V112H198Z" fill="#F2F2F2"/>
<path d="M198 121V122.5H199.2V125.5H198V127H201V121H198Z" fill="#F2F2F2"/>
<path d="M198 94V95.2498H199.2V97.7498H198V99H201V94H198Z" fill="#F2F2F2"/>
<path d="M198 147V148.5H199.2V151.5H198V153H201V147H198Z" fill="#F2F2F2"/>
<path d="M154 174H151V179H154V174Z" fill="#F2F2F2"/>
<path d="M160 163H157V169H160V163Z" fill="#F2F2F2"/>
<path d="M154 196H151V201H154V196Z" fill="#F2F2F2"/>
<path d="M160 180H157V186H160V180Z" fill="#F2F2F2"/>
<path d="M151 165V166.25H152.2V168.75H151V170H154V165H151Z" fill="#F2F2F2"/>
<path d="M151 205V206.5H152.2V209.5H151V211H154V205H151Z" fill="#F2F2F2"/>
<path d="M191 61H188V67H191V61Z" fill="#F2F2F2"/>
<path d="M191 103H188V109H191V103Z" fill="#F2F2F2"/>
<path d="M193 190H188V191H193V190Z" fill="#F2F2F2"/>
<path d="M188 77V78.4999H189.2V81.5001H188V83H191V77H188Z" fill="#F2F2F2"/>
<path d="M188 86V87.5002H189.2V90.5002H188V92H191V86H188Z" fill="#F2F2F2"/>
<path d="M188 95V96.5002H189.2V99.4998H188V101H191V95H188Z" fill="#F2F2F2"/>
<path d="M191 121H188V127H191V121Z" fill="#F2F2F2"/>
<path d="M188 112V113.5H189.2V116.5H188V118H191V112H188Z" fill="#F2F2F2"/>
<path d="M191 139H188V144H191V139Z" fill="#F2F2F2"/>
<path d="M188 130V131.25H189.2V133.75H188V135H191V130H188Z" fill="#F2F2F2"/>
<path d="M191 156H188V161H191V156Z" fill="#F2F2F2"/>
<path d="M188 147V148.5H189.2V151.5H188V153H191V147H188Z" fill="#F2F2F2"/>
<path d="M191 174H188V179H191V174Z" fill="#F2F2F2"/>
<path d="M191 196H188V201H191V196Z" fill="#F2F2F2"/>
<path d="M188 165V166.25H189.2V168.75H188V170H191V165H188Z" fill="#F2F2F2"/>
<path d="M188 205V206.5H189.2V209.5H188V211H191V205H188Z" fill="#F2F2F2"/>
<path d="M207 61H204V67H207V61Z" fill="#F2F2F2"/>
<path d="M207 103H204V109H207V103Z" fill="#F2F2F2"/>
<path d="M209 190H204V191H209V190Z" fill="#F2F2F2"/>
<path d="M204 77V78.4999H205.2V81.5001H204V83H207V77H204Z" fill="#F2F2F2"/>
<path d="M204 86V87.5002H205.2V90.5002H204V92H207V86H204Z" fill="#F2F2F2"/>
<path d="M204 95V96.5002H205.2V99.4998H204V101H207V95H204Z" fill="#F2F2F2"/>
<path d="M207 121H204V127H207V121Z" fill="#F2F2F2"/>
<path d="M204 112V113.5H205.2V116.5H204V118H207V112H204Z" fill="#F2F2F2"/>
<path d="M207 139H204V144H207V139Z" fill="#F2F2F2"/>
<path d="M204 130V131.25H205.2V133.75H204V135H207V130H204Z" fill="#F2F2F2"/>
<path d="M207 156H204V161H207V156Z" fill="#F2F2F2"/>
<path d="M204 147V148.5H205.2V151.5H204V153H207V147H204Z" fill="#F2F2F2"/>
<path d="M207 174H204V179H207V174Z" fill="#F2F2F2"/>
<path d="M207 196H204V201H207V196Z" fill="#F2F2F2"/>
<path d="M204 165V166.25H205.2V168.75H204V170H207V165H204Z" fill="#F2F2F2"/>
<path d="M204 205V206.5H205.2V209.5H204V211H207V205H204Z" fill="#F2F2F2"/>
<path d="M157 196V197.25H158.2V199.75H157V201H160V196H157Z" fill="#F2F2F2"/>
<path d="M157 205V206.5H158.2V209.5H157V211H160V205H157Z" fill="#F2F2F2"/>
<path d="M139 103V104.5H140.6V107.5H139V109H143V103H139Z" fill="#F2F2F2"/>
<path d="M139 138V139.25H140.6V141.75H139V143H143V138H139Z" fill="#F2F2F2"/>
<path d="M139 146V147.5H140.6V150.5H139V152H143V146H139Z" fill="#F2F2F2"/>
<path d="M139 164V165.25H140.6V167.75H139V169H143V164H139Z" fill="#F2F2F2"/>
<path d="M139 189V190.25H140.6V192.75H139V194H143V189H139Z" fill="#F2F2F2"/>
<path d="M139 196V197.25H140.6V199.75H139V201H143V196H139Z" fill="#F2F2F2"/>
<path d="M177 63H175V68H177V63Z" fill="#F2F2F2"/>
<path d="M177 72H175V77H177V72Z" fill="#F2F2F2"/>
<path d="M177 131H173V132H177V131Z" fill="#F2F2F2"/>
<path d="M175 87V88.2499H175.8V90.7501H175V92H177V87H175Z" fill="#F2F2F2"/>
<path d="M175 103V104.5H175.8V107.5H175V109H177V103H175Z" fill="#F2F2F2"/>
<path d="M175 138V139.25H175.8V141.75H175V143H177V138H175Z" fill="#F2F2F2"/>
<path d="M216 121H213V127H216V121Z" fill="#F2F2F2"/>
<path d="M216 130H213V135H216V130Z" fill="#F2F2F2"/>
<path d="M216 139H211V140H216V139Z" fill="#F2F2F2"/>
<path d="M216 182H211V183H216V182Z" fill="#F2F2F2"/>
<path d="M213 145V146.25H214.2V148.75H213V150H216V145H213Z" fill="#F2F2F2"/>
<path d="M213 162V163.25H214.2V165.75H213V167H216V162H213Z" fill="#F2F2F2"/>
<path d="M213 196V197.25H214.2V199.75H213V201H216V196H213Z" fill="#F2F2F2"/>
<path d="M227 63H223V68H227V63Z" fill="#F2F2F2"/>
<path d="M238 61H235V67H238V61Z" fill="#F2F2F2"/>
<path d="M244 61H241V67H244V61Z" fill="#F2F2F2"/>
<path d="M244 77H241V83H244V77Z" fill="#F2F2F2"/>
<path d="M251 69H248V75H251V69Z" fill="#F2F2F2"/>
<path d="M251 78H248V84H251V78Z" fill="#F2F2F2"/>
<path d="M244 95H241V101H244V95Z" fill="#F2F2F2"/>
<path d="M251 103H248V109H251V103Z" fill="#F2F2F2"/>
<path d="M244 136H241V142H244V136Z" fill="#F2F2F2"/>
<path d="M238 103H235V109H238V103Z" fill="#F2F2F2"/>
<path d="M227 72H223V77H227V72Z" fill="#F2F2F2"/>
<path d="M227 156H223V161H227V156Z" fill="#F2F2F2"/>
<path d="M227 173H223V178H227V173Z" fill="#F2F2F2"/>
<path d="M227 182H223V187H227V182Z" fill="#F2F2F2"/>
<path d="M245 89H240V90H245V89Z" fill="#F2F2F2"/>
<path d="M227 131H222V132H227V131Z" fill="#F2F2F2"/>
<path d="M245 174H240V175H245V174Z" fill="#F2F2F2"/>
<path d="M239 190H235V191H239V190Z" fill="#F2F2F2"/>
<path d="M223 87V88.2499H224.6V90.7501H223V92H227V87H223Z" fill="#F2F2F2"/>
<path d="M235 77V78.4999H236.2V81.5001H235V83H238V77H235Z" fill="#F2F2F2"/>
<path d="M248 86V87.5002H249.2V90.5002H248V92H251V86H248Z" fill="#F2F2F2"/>
<path d="M248 112V113.5H249.2V116.5H248V118H251V112H248Z" fill="#F2F2F2"/>
<path d="M248 121V122.5H249.2V125.5H248V127H251V121H248Z" fill="#F2F2F2"/>
<path d="M248 94V95.2498H249.2V97.7498H248V99H251V94H248Z" fill="#F2F2F2"/>
<path d="M241 69V70.5002H242.2V73.4998H241V75H244V69H241Z" fill="#F2F2F2"/>
<path d="M244 112H241V118H244V112Z" fill="#F2F2F2"/>
<path d="M244 128H241V134H244V128Z" fill="#F2F2F2"/>
<path d="M241 120V121.5H242.2V124.5H241V126H244V120H241Z" fill="#F2F2F2"/>
<path d="M235 86V87.5002H236.2V90.5002H235V92H238V86H235Z" fill="#F2F2F2"/>
<path d="M235 95V96.5002H236.2V99.4998H235V101H238V95H235Z" fill="#F2F2F2"/>
<path d="M238 121H235V127H238V121Z" fill="#F2F2F2"/>
<path d="M235 112V113.5H236.2V116.5H235V118H238V112H235Z" fill="#F2F2F2"/>
<path d="M238 139H235V144H238V139Z" fill="#F2F2F2"/>
<path d="M235 130V131.25H236.2V133.75H235V135H238V130H235Z" fill="#F2F2F2"/>
<path d="M238 156H235V161H238V156Z" fill="#F2F2F2"/>
<path d="M244 154H241V160H244V154Z" fill="#F2F2F2"/>
<path d="M235 147V148.5H236.2V151.5H235V153H238V147H235Z" fill="#F2F2F2"/>
<path d="M248 147V148.5H249.2V151.5H248V153H251V147H248Z" fill="#F2F2F2"/>
<path d="M285 69H282V75H285V69Z" fill="#F2F2F2"/>
<path d="M285 78H282V84H285V78Z" fill="#F2F2F2"/>
<path d="M285 103H282V109H285V103Z" fill="#F2F2F2"/>
<path d="M282 86V87.5002H283.2V90.5002H282V92H285V86H282Z" fill="#F2F2F2"/>
<path d="M282 112V113.5H283.2V116.5H282V118H285V112H282Z" fill="#F2F2F2"/>
<path d="M282 121V122.5H283.2V125.5H282V127H285V121H282Z" fill="#F2F2F2"/>
<path d="M282 94V95.2498H283.2V97.7498H282V99H285V94H282Z" fill="#F2F2F2"/>
<path d="M282 147V148.5H283.2V151.5H282V153H285V147H282Z" fill="#F2F2F2"/>
<path d="M238 174H235V179H238V174Z" fill="#F2F2F2"/>
<path d="M244 163H241V169H244V163Z" fill="#F2F2F2"/>
<path d="M238 196H235V201H238V196Z" fill="#F2F2F2"/>
<path d="M244 180H241V186H244V180Z" fill="#F2F2F2"/>
<path d="M235 165V166.25H236.2V168.75H235V170H238V165H235Z" fill="#F2F2F2"/>
<path d="M235 205V206.5H236.2V209.5H235V211H238V205H235Z" fill="#F2F2F2"/>
<path d="M275 61H272V67H275V61Z" fill="#F2F2F2"/>
<path d="M275 103H272V109H275V103Z" fill="#F2F2F2"/>
<path d="M276 190H272V191H276V190Z" fill="#F2F2F2"/>
<path d="M272 77V78.4999H273.2V81.5001H272V83H275V77H272Z" fill="#F2F2F2"/>
<path d="M272 86V87.5002H273.2V90.5002H272V92H275V86H272Z" fill="#F2F2F2"/>
<path d="M272 95V96.5002H273.2V99.4998H272V101H275V95H272Z" fill="#F2F2F2"/>
<path d="M275 121H272V127H275V121Z" fill="#F2F2F2"/>
<path d="M272 112V113.5H273.2V116.5H272V118H275V112H272Z" fill="#F2F2F2"/>
<path d="M275 139H272V144H275V139Z" fill="#F2F2F2"/>
<path d="M272 130V131.25H273.2V133.75H272V135H275V130H272Z" fill="#F2F2F2"/>
<path d="M275 156H272V161H275V156Z" fill="#F2F2F2"/>
<path d="M272 147V148.5H273.2V151.5H272V153H275V147H272Z" fill="#F2F2F2"/>
<path d="M275 174H272V179H275V174Z" fill="#F2F2F2"/>
<path d="M275 196H272V201H275V196Z" fill="#F2F2F2"/>
<path d="M272 165V166.25H273.2V168.75H272V170H275V165H272Z" fill="#F2F2F2"/>
<path d="M272 205V206.5H273.2V209.5H272V211H275V205H272Z" fill="#F2F2F2"/>
<path d="M291 61H287V67H291V61Z" fill="#F2F2F2"/>
<path d="M291 103H287V109H291V103Z" fill="#F2F2F2"/>
<path d="M293 190H287V191H293V190Z" fill="#F2F2F2"/>
<path d="M287 77V78.4999H288.6V81.5001H287V83H291V77H287Z" fill="#F2F2F2"/>
<path d="M287 86V87.5002H288.6V90.5002H287V92H291V86H287Z" fill="#F2F2F2"/>
<path d="M287 95V96.5002H288.6V99.4998H287V101H291V95H287Z" fill="#F2F2F2"/>
<path d="M291 121H287V127H291V121Z" fill="#F2F2F2"/>
<path d="M287 112V113.5H288.6V116.5H287V118H291V112H287Z" fill="#F2F2F2"/>
<path d="M291 139H287V144H291V139Z" fill="#F2F2F2"/>
<path d="M287 130V131.25H288.6V133.75H287V135H291V130H287Z" fill="#F2F2F2"/>
<path d="M291 156H287V161H291V156Z" fill="#F2F2F2"/>
<path d="M287 147V148.5H288.6V151.5H287V153H291V147H287Z" fill="#F2F2F2"/>
<path d="M291 174H287V179H291V174Z" fill="#F2F2F2"/>
<path d="M291 196H287V201H291V196Z" fill="#F2F2F2"/>
<path d="M287 165V166.25H288.6V168.75H287V170H291V165H287Z" fill="#F2F2F2"/>
<path d="M287 205V206.5H288.6V209.5H287V211H291V205H287Z" fill="#F2F2F2"/>
<path d="M241 196V197.25H242.2V199.75H241V201H244V196H241Z" fill="#F2F2F2"/>
<path d="M241 205V206.5H242.2V209.5H241V211H244V205H241Z" fill="#F2F2F2"/>
<path d="M223 103V104.5H224.6V107.5H223V109H227V103H223Z" fill="#F2F2F2"/>
<path d="M223 138V139.25H224.6V141.75H223V143H227V138H223Z" fill="#F2F2F2"/>
<path d="M223 146V147.5H224.6V150.5H223V152H227V146H223Z" fill="#F2F2F2"/>
<path d="M223 164V165.25H224.6V167.75H223V169H227V164H223Z" fill="#F2F2F2"/>
<path d="M223 189V190.25H224.6V192.75H223V194H227V189H223Z" fill="#F2F2F2"/>
<path d="M223 196V197.25H224.6V199.75H223V201H227V196H223Z" fill="#F2F2F2"/>
<path d="M261 63H258V68H261V63Z" fill="#F2F2F2"/>
<path d="M261 72H258V77H261V72Z" fill="#F2F2F2"/>
<path d="M261 131H257V132H261V131Z" fill="#F2F2F2"/>
<path d="M258 87V88.2499H259.2V90.7501H258V92H261V87H258Z" fill="#F2F2F2"/>
<path d="M258 103V104.5H259.2V107.5H258V109H261V103H258Z" fill="#F2F2F2"/>
<path d="M258 138V139.25H259.2V141.75H258V143H261V138H258Z" fill="#F2F2F2"/>
<path d="M300 121H296V127H300V121Z" fill="#F2F2F2"/>
<path d="M300 130H296V135H300V130Z" fill="#F2F2F2"/>
<path d="M300 139H295V140H300V139Z" fill="#F2F2F2"/>
<path d="M300 182H295V183H300V182Z" fill="#F2F2F2"/>
<path d="M296 145V146.25H297.6V148.75H296V150H300V145H296Z" fill="#F2F2F2"/>
<path d="M296 162V163.25H297.6V165.75H296V167H300V162H296Z" fill="#F2F2F2"/>
<path d="M296 196V197.25H297.6V199.75H296V201H300V196H296Z" fill="#F2F2F2"/>
<path d="M195.5 134C196.328 134 197 133.328 197 132.5C197 131.672 196.328 131 195.5 131C194.672 131 194 131.672 194 132.5C194 133.328 194.672 134 195.5 134Z" fill="#F2F2F2"/>
<path fill-rule="evenodd" clip-rule="evenodd" d="M53.1485 52.0713H301.698C305.616 52.0713 308.847 55.301 308.847 59.2179V223.831C308.847 227.748 305.65 230.978 301.698 230.978H53.1485C49.2306 230.978 46 227.748 46 223.831V59.2179C46 55.301 49.2306 52.0713 53.1485 52.0713ZM145.014 240.839H209.832C210.004 252.04 214.609 262.073 227.119 269.975H127.727C137.728 262.725 145.049 253.895 145.014 240.839ZM177.423 206.892C182.475 206.892 186.6 211.015 186.6 216.066C186.6 221.117 182.475 225.24 177.423 225.24C172.371 225.24 168.247 221.117 168.247 216.066C168.247 211.015 172.337 206.892 177.423 206.892ZM67.48 65.54H287.332C290.803 65.54 293.656 68.3918 293.656 71.862V194.867C293.656 198.337 290.803 201.189 287.332 201.189H67.48C64.0088 201.189 61.1563 198.337 61.1563 194.867V71.862C61.1563 68.3574 64.0088 65.54 67.48 65.54Z" fill="#BDBDBD"/>
<path d="M102.721 167.25L102.436 167.868L102.44 167.87L102.721 167.25ZM93.5146 159.84L92.9587 160.233L92.9605 160.235L93.5146 159.84ZM90.1143 148.997V148.316H89.4262L89.4334 149.004L90.1143 148.997ZM107.436 148.997L108.117 148.978L108.098 148.316H107.436V148.997ZM110.067 154.419L109.642 154.951L109.645 154.953L110.067 154.419ZM122.834 153.841L122.352 153.36L122.349 153.363L122.834 153.841ZM125.4 146.944L124.719 146.939L124.719 146.949L125.4 146.944ZM122.834 140.048L122.349 140.526L122.352 140.529L122.834 140.048ZM110.933 138.829L111.269 139.421L111.272 139.419L110.933 138.829ZM107.436 142.582L107.305 143.25L107.828 143.353L108.053 142.87L107.436 142.582ZM91.7824 139.502L91.1031 139.454L91.0606 140.054L91.6509 140.17L91.7824 139.502ZM94.3486 103.319V102.638H93.7142L93.6693 103.27L94.3486 103.319ZM138.488 103.319H139.169V102.638H138.488V103.319ZM138.488 117.561V118.242H139.169V117.561H138.488ZM108.976 117.561V116.88H108.353L108.298 117.501L108.976 117.561ZM107.693 132.06L107.015 132L106.949 132.741H107.693V132.06ZM108.078 132.06V132.741H108.493L108.683 132.373L108.078 132.06ZM113.403 127.12L113.716 127.725L113.72 127.723L113.403 127.12ZM132.649 127.858L132.302 128.443L132.303 128.445L132.649 127.858ZM139.931 135.396L139.335 135.726L139.338 135.731L139.931 135.396ZM142.594 146.431L141.913 146.428L141.913 146.434L142.594 146.431ZM139.322 158.621L138.743 158.262L138.742 158.263L139.322 158.621ZM130.115 166.929L130.421 167.537L130.424 167.536L130.115 166.929ZM116.161 169.231C111.195 169.231 106.813 168.358 103.002 166.629L102.44 167.87C106.456 169.691 111.034 170.593 116.161 170.593V169.231ZM103.006 166.631C99.2095 164.879 96.2381 162.481 94.0687 159.444L92.9605 160.235C95.282 163.486 98.4481 166.028 102.436 167.868L103.006 166.631ZM94.0705 159.446C91.9313 156.423 90.8366 152.945 90.7952 148.99L89.4334 149.004C89.4775 153.219 90.6497 156.969 92.9587 160.233L94.0705 159.446ZM90.1143 149.678H107.436V148.316H90.1143V149.678ZM106.756 149.017C106.825 151.473 107.787 153.472 109.642 154.951L110.491 153.886C108.967 152.671 108.176 151.056 108.117 148.978L106.756 149.017ZM109.645 154.953C111.486 156.403 113.669 157.12 116.161 157.12V155.758C113.949 155.758 112.069 155.128 110.488 153.884L109.645 154.953ZM116.161 157.12C119.056 157.12 121.463 156.198 123.318 154.32L122.349 153.363C120.783 154.949 118.741 155.758 116.161 155.758V157.12ZM123.315 154.323C125.198 152.44 126.103 149.954 126.081 146.939L124.719 146.949C124.739 149.666 123.934 151.778 122.352 153.36L123.315 154.323ZM126.081 146.949C126.103 143.935 125.198 141.449 123.315 139.566L122.352 140.529C123.934 142.111 124.739 144.223 124.719 146.939L126.081 146.949ZM123.318 139.569C121.463 137.691 119.056 136.768 116.161 136.768V138.13C118.741 138.13 120.783 138.94 122.349 140.526L123.318 139.569ZM116.161 136.768C114.163 136.768 112.303 137.258 110.594 138.238L111.272 139.419C112.77 138.56 114.396 138.13 116.161 138.13V136.768ZM110.597 138.236C108.895 139.202 107.629 140.558 106.819 142.294L108.053 142.87C108.74 141.398 109.806 140.251 111.269 139.421L110.597 138.236ZM107.568 141.914L91.9138 138.834L91.6509 140.17L107.305 143.25L107.568 141.914ZM92.4616 139.551L95.0278 103.367L93.6693 103.27L91.1031 139.454L92.4616 139.551ZM94.3486 104H138.488V102.638H94.3486V104ZM137.807 103.319V117.561H139.169V103.319H137.807ZM138.488 116.88H108.976V118.242H138.488V116.88ZM108.298 117.501L107.015 132L108.371 132.12L109.654 117.621L108.298 117.501ZM107.693 132.741H108.078V131.379H107.693V132.741ZM108.683 132.373C109.629 130.539 111.284 128.982 113.716 127.725L113.09 126.515C110.475 127.867 108.58 129.604 107.473 131.748L108.683 132.373ZM113.72 127.723C116.13 126.457 118.948 125.812 122.192 125.812V124.451C118.764 124.451 115.723 125.132 113.086 126.517L113.72 127.723ZM122.192 125.812C125.996 125.812 129.359 126.694 132.302 128.443L132.997 127.273C129.824 125.386 126.215 124.451 122.192 124.451V125.812ZM132.303 128.445C135.275 130.199 137.618 132.622 139.335 135.726L140.527 135.067C138.695 131.755 136.182 129.153 132.996 127.272L132.303 128.445ZM139.338 135.731C141.068 138.8 141.934 142.359 141.913 146.428L143.275 146.435C143.296 142.163 142.387 138.365 140.524 135.062L139.338 135.731ZM141.913 146.434C141.934 150.895 140.872 154.831 138.743 158.262L139.9 158.98C142.177 155.311 143.296 151.12 143.275 146.428L141.913 146.434ZM138.742 158.263C136.631 161.677 133.66 164.364 129.807 166.322L130.424 167.536C134.483 165.473 137.649 162.621 139.901 158.979L138.742 158.263ZM129.809 166.32C125.966 168.253 121.423 169.231 116.161 169.231V170.593C121.592 170.593 126.352 169.583 130.421 167.537L129.809 166.32ZM178.898 170.81L178.895 171.491H178.898V170.81ZM163.436 166.672L163.073 167.248L163.436 166.672ZM153.396 154.836L152.776 155.118L153.396 154.836ZM149.899 136.295L150.58 136.297V136.297L149.899 136.295ZM153.428 117.882L152.811 117.594L152.81 117.596L153.428 117.882ZM163.436 106.366L163.083 105.784L163.082 105.784L163.436 106.366ZM194.359 106.398L194.004 106.979L194.006 106.98L194.359 106.398ZM204.4 117.914L205.017 117.626L204.4 117.914ZM207.896 136.295L207.215 136.293V136.295H207.896ZM204.367 154.9L204.987 155.182L204.367 154.9ZM194.327 166.736L194.69 167.313L194.69 167.312L194.327 166.736ZM186.468 151.499L185.888 151.142L185.888 151.143L186.468 151.499ZM189.419 136.295L190.1 136.292V136.292L189.419 136.295ZM186.436 121.475L185.858 121.835L185.86 121.838L186.436 121.475ZM171.359 121.475L170.781 121.114V121.114L171.359 121.475ZM168.376 136.295L167.695 136.29L167.695 136.292L168.376 136.295ZM171.295 151.499L170.714 151.854L170.716 151.858L171.295 151.499ZM178.9 170.129C173.04 170.108 168.016 168.755 163.799 166.096L163.073 167.248C167.539 170.064 172.822 171.469 178.895 171.491L178.9 170.129ZM163.799 166.096C159.582 163.437 156.319 159.599 154.015 154.553L152.776 155.118C155.178 160.38 158.608 164.433 163.073 167.248L163.799 166.096ZM154.015 154.553C151.713 149.509 150.559 143.431 150.58 136.297L149.218 136.293C149.197 143.572 150.374 149.854 152.776 155.118L154.015 154.553ZM150.58 136.297C150.601 129.138 151.767 123.103 154.046 118.167L152.81 117.596C150.427 122.755 149.24 128.995 149.218 136.293L150.58 136.297ZM154.045 118.17C156.347 113.232 159.597 109.501 163.79 106.948L163.082 105.784C158.636 108.492 155.214 112.438 152.811 117.594L154.045 118.17ZM163.789 106.948C168.006 104.393 173.034 103.101 178.898 103.101V101.739C172.829 101.739 167.548 103.078 163.083 105.784L163.789 106.948ZM178.898 103.101C184.761 103.101 189.787 104.403 194.004 106.979L194.714 105.817C190.249 103.089 184.967 101.739 178.898 101.739V103.101ZM194.006 106.98C198.221 109.534 201.481 113.265 203.782 118.202L205.017 117.626C202.613 112.47 199.18 108.523 194.712 105.816L194.006 106.98ZM203.782 118.202C206.082 123.135 207.236 129.157 207.215 136.293L208.577 136.297C208.599 129.018 207.422 122.786 205.017 117.626L203.782 118.202ZM207.215 136.295C207.215 143.473 206.05 149.573 203.748 154.617L204.987 155.182C207.389 149.919 208.577 143.615 208.577 136.295H207.215ZM203.748 154.617C201.445 159.663 198.181 163.501 193.964 166.16L194.69 167.312C199.155 164.497 202.585 160.444 204.987 155.182L203.748 154.617ZM193.965 166.16C189.771 168.797 184.758 170.129 178.898 170.129V171.491C184.97 171.491 190.244 170.108 194.69 167.313L193.965 166.16ZM178.898 156.992C182.269 156.992 184.989 155.213 187.048 151.855L185.888 151.143C184.012 154.201 181.685 155.63 178.898 155.63V156.992ZM187.048 151.857C189.138 148.463 190.122 143.237 190.1 136.292L188.738 136.297C188.759 143.167 187.776 148.078 185.888 151.142L187.048 151.857ZM190.1 136.292C190.079 129.498 189.084 124.399 187.012 121.112L185.86 121.838C187.723 124.795 188.717 129.576 188.738 136.297L190.1 136.292ZM187.014 121.114C184.972 117.838 182.261 116.11 178.898 116.11V117.472C181.693 117.472 184.008 118.867 185.858 121.835L187.014 121.114ZM178.898 116.11C175.534 116.11 172.824 117.838 170.781 121.114L171.937 121.835C173.787 118.867 176.102 117.472 178.898 117.472V116.11ZM170.781 121.114C168.733 124.4 167.738 129.497 167.695 136.29L169.057 136.299C169.1 129.577 170.093 124.793 171.937 121.835L170.781 121.114ZM167.695 136.292C167.674 143.237 168.646 148.461 170.714 151.854L171.877 151.145C170.009 148.08 169.036 143.167 169.057 136.297L167.695 136.292ZM170.716 151.858C172.797 155.214 175.527 156.992 178.898 156.992V155.63C176.109 155.63 173.771 154.2 171.874 151.141L170.716 151.858ZM244.882 170.81L244.879 171.491H244.882V170.81ZM229.42 166.672L229.057 167.248L229.42 166.672ZM219.38 154.836L218.76 155.118L219.38 154.836ZM215.883 136.295L216.564 136.297V136.297L215.883 136.295ZM219.412 117.882L218.795 117.594L218.794 117.596L219.412 117.882ZM229.42 106.366L229.067 105.784L229.066 105.784L229.42 106.366ZM260.343 106.398L259.988 106.979L259.99 106.98L260.343 106.398ZM270.384 117.914L271.001 117.626L270.384 117.914ZM273.88 136.295L273.199 136.293V136.295H273.88ZM270.351 154.9L270.971 155.182L270.351 154.9ZM260.311 166.736L260.674 167.313L260.674 167.312L260.311 166.736ZM252.452 151.499L251.872 151.142L251.872 151.143L252.452 151.499ZM255.403 136.295L256.084 136.292V136.292L255.403 136.295ZM252.42 121.475L251.842 121.835L251.844 121.838L252.42 121.475ZM237.343 121.475L236.766 121.114V121.114L237.343 121.475ZM234.36 136.295L233.679 136.29V136.292L234.36 136.295ZM237.279 151.499L236.698 151.854L236.701 151.858L237.279 151.499ZM244.884 170.129C239.024 170.108 234 168.755 229.783 166.096L229.057 167.248C233.523 170.064 238.806 171.469 244.879 171.491L244.884 170.129ZM229.783 166.096C225.566 163.437 222.303 159.599 219.999 154.553L218.76 155.118C221.162 160.38 224.592 164.433 229.057 167.248L229.783 166.096ZM219.999 154.553C217.697 149.509 216.543 143.431 216.564 136.297L215.202 136.293C215.181 143.572 216.358 149.854 218.76 155.118L219.999 154.553ZM216.564 136.297C216.585 129.138 217.751 123.103 220.03 118.167L218.794 117.596C216.411 122.755 215.224 128.995 215.202 136.293L216.564 136.297ZM220.029 118.17C222.331 113.232 225.581 109.501 229.774 106.948L229.066 105.784C224.62 108.492 221.198 112.438 218.795 117.594L220.029 118.17ZM229.773 106.948C233.99 104.393 239.018 103.101 244.882 103.101V101.739C238.813 101.739 233.532 103.078 229.067 105.784L229.773 106.948ZM244.882 103.101C250.745 103.101 255.771 104.403 259.988 106.979L260.698 105.817C256.233 103.089 250.951 101.739 244.882 101.739V103.101ZM259.99 106.98C264.205 109.534 267.465 113.265 269.766 118.202L271.001 117.626C268.597 112.47 265.164 108.523 260.696 105.816L259.99 106.98ZM269.766 118.202C272.066 123.135 273.22 129.157 273.199 136.293L274.561 136.297C274.583 129.018 273.406 122.786 271.001 117.626L269.766 118.202ZM273.199 136.295C273.199 143.473 272.034 149.573 269.732 154.617L270.971 155.182C273.373 149.919 274.561 143.615 274.561 136.295H273.199ZM269.732 154.617C267.429 159.663 264.165 163.501 259.948 166.16L260.674 167.312C265.139 164.497 268.569 160.444 270.971 155.182L269.732 154.617ZM259.949 166.16C255.755 168.797 250.742 170.129 244.882 170.129V171.491C250.954 171.491 256.228 170.108 260.674 167.313L259.949 166.16ZM244.882 156.992C248.253 156.992 250.973 155.213 253.033 151.855L251.872 151.143C249.996 154.201 247.669 155.63 244.882 155.63V156.992ZM253.032 151.857C255.122 148.463 256.106 143.237 256.084 136.292L254.722 136.297C254.744 143.167 253.76 148.078 251.872 151.142L253.032 151.857ZM256.084 136.292C256.063 129.498 255.068 124.399 252.996 121.112L251.844 121.838C253.707 124.795 254.701 129.576 254.722 136.297L256.084 136.292ZM252.998 121.114C250.956 117.838 248.245 116.11 244.882 116.11V117.472C247.677 117.472 249.992 118.867 251.842 121.835L252.998 121.114ZM244.882 116.11C241.518 116.11 238.808 117.838 236.766 121.114L237.921 121.835C239.771 118.867 242.086 117.472 244.882 117.472V116.11ZM236.766 121.114C234.717 124.4 233.722 129.497 233.679 136.29L235.041 136.299C235.084 129.577 236.077 124.793 237.921 121.835L236.766 121.114ZM233.679 136.292C233.658 143.237 234.63 148.461 236.698 151.854L237.861 151.145C235.993 148.08 235.02 143.167 235.041 136.297L233.679 136.292ZM236.701 151.858C238.781 155.214 241.511 156.992 244.882 156.992V155.63C242.093 155.63 239.755 154.2 237.858 151.141L236.701 151.858Z" fill="#56CCF2" fill-opacity="0.5"/>
<path d="M110.033 166.507C104.986 166.507 100.505 165.62 96.592 163.845C92.6999 162.048 89.6311 159.579 87.3857 156.435C85.1616 153.291 84.0282 149.677 83.9854 145.593H101.307C101.372 147.859 102.248 149.666 103.938 151.014C105.649 152.361 107.68 153.035 110.033 153.035C112.77 153.035 114.994 152.169 116.705 150.436C118.437 148.704 119.292 146.405 119.271 143.54C119.292 140.674 118.437 138.375 116.705 136.643C114.994 134.911 112.77 134.045 110.033 134.045C108.151 134.045 106.408 134.504 104.804 135.424C103.221 136.322 102.056 137.573 101.307 139.177L85.6535 136.098L88.2197 99.9138H132.359V114.156H102.847L101.564 128.656H101.949C102.975 126.667 104.75 125.02 107.274 123.716C109.797 122.39 112.727 121.727 116.063 121.727C119.977 121.727 123.462 122.636 126.521 124.453C129.6 126.271 132.027 128.784 133.802 131.992C135.599 135.178 136.486 138.856 136.465 143.026C136.486 147.603 135.395 151.666 133.193 155.216C131.011 158.744 127.943 161.514 123.986 163.524C120.03 165.513 115.379 166.507 110.033 166.507ZM172.769 167.405C166.802 167.384 161.648 166.005 157.307 163.267C152.966 160.53 149.619 156.585 147.267 151.431C144.915 146.277 143.749 140.097 143.77 132.89C143.792 125.662 144.968 119.524 147.299 114.477C149.651 109.43 152.987 105.592 157.307 102.961C161.648 100.331 166.802 99.0156 172.769 99.0156C178.735 99.0156 183.889 100.341 188.23 102.993C192.571 105.624 195.918 109.462 198.271 114.509C200.623 119.556 201.788 125.683 201.767 132.89C201.767 140.139 200.591 146.341 198.239 151.495C195.886 156.649 192.539 160.594 188.198 163.332C183.878 166.048 178.735 167.405 172.769 167.405ZM172.769 152.906C175.848 152.906 178.372 151.302 180.339 148.095C182.328 144.865 183.312 139.797 183.29 132.89C183.269 126.132 182.274 121.192 180.307 118.07C178.361 114.948 175.848 113.386 172.769 113.386C169.689 113.386 167.177 114.948 165.23 118.07C163.284 121.192 162.29 126.132 162.247 132.89C162.226 139.797 163.199 144.865 165.166 148.095C167.155 151.302 169.689 152.906 172.769 152.906ZM238.753 167.405C232.786 167.384 227.632 166.005 223.291 163.267C218.95 160.53 215.603 156.585 213.251 151.431C210.899 146.277 209.733 140.097 209.754 132.89C209.776 125.662 210.952 119.524 213.283 114.477C215.635 109.43 218.971 105.592 223.291 102.961C227.632 100.331 232.786 99.0156 238.753 99.0156C244.719 99.0156 249.873 100.341 254.214 102.993C258.555 105.624 261.902 109.462 264.255 114.509C266.607 119.556 267.772 125.683 267.751 132.89C267.751 140.139 266.575 146.341 264.223 151.495C261.87 156.649 258.523 160.594 254.182 163.332C249.862 166.048 244.719 167.405 238.753 167.405ZM238.753 152.906C241.832 152.906 244.356 151.302 246.323 148.095C248.312 144.865 249.296 139.797 249.274 132.89C249.253 126.132 248.258 121.192 246.291 118.07C244.345 114.948 241.832 113.386 238.753 113.386C235.673 113.386 233.161 114.948 231.214 118.07C229.268 121.192 228.274 126.132 228.231 132.89C228.21 139.797 229.183 144.865 231.15 148.095C233.139 151.302 235.673 152.906 238.753 152.906Z" fill="#6FCF97"/>
<path d="M110.033 166.507C104.986 166.507 100.505 165.62 96.592 163.845C92.6999 162.048 89.6311 159.579 87.3857 156.435C85.1616 153.291 84.0282 149.677 83.9854 145.593H101.307C101.372 147.859 102.248 149.666 103.938 151.014C105.649 152.361 107.68 153.035 110.033 153.035C112.77 153.035 114.994 152.169 116.705 150.436C118.437 148.704 119.292 146.405 119.271 143.54C119.292 140.674 118.437 138.375 116.705 136.643C114.994 134.911 112.77 134.045 110.033 134.045C108.151 134.045 106.408 134.504 104.804 135.424C103.221 136.322 102.056 137.573 101.307 139.177L85.6535 136.098L88.2197 99.9138H132.359V114.156H102.847L101.564 128.656H101.949C102.975 126.667 104.75 125.02 107.274 123.716C109.797 122.39 112.727 121.727 116.063 121.727C119.977 121.727 123.462 122.636 126.521 124.453C129.6 126.271 132.027 128.784 133.802 131.992C135.599 135.178 136.486 138.856 136.465 143.026C136.486 147.603 135.395 151.666 133.193 155.216C131.011 158.744 127.943 161.514 123.986 163.524C120.03 165.513 115.379 166.507 110.033 166.507ZM172.769 167.405C166.802 167.384 161.648 166.005 157.307 163.267C152.966 160.53 149.619 156.585 147.267 151.431C144.915 146.277 143.749 140.097 143.77 132.89C143.792 125.662 144.968 119.524 147.299 114.477C149.651 109.43 152.987 105.592 157.307 102.961C161.648 100.331 166.802 99.0156 172.769 99.0156C178.735 99.0156 183.889 100.341 188.23 102.993C192.571 105.624 195.918 109.462 198.271 114.509C200.623 119.556 201.788 125.683 201.767 132.89C201.767 140.139 200.591 146.341 198.239 151.495C195.886 156.649 192.539 160.594 188.198 163.332C183.878 166.048 178.735 167.405 172.769 167.405ZM172.769 152.906C175.848 152.906 178.372 151.302 180.339 148.095C182.328 144.865 183.312 139.797 183.29 132.89C183.269 126.132 182.274 121.192 180.307 118.07C178.361 114.948 175.848 113.386 172.769 113.386C169.689 113.386 167.177 114.948 165.23 118.07C163.284 121.192 162.29 126.132 162.247 132.89C162.226 139.797 163.199 144.865 165.166 148.095C167.155 151.302 169.689 152.906 172.769 152.906ZM238.753 167.405C232.786 167.384 227.632 166.005 223.291 163.267C218.95 160.53 215.603 156.585 213.251 151.431C210.899 146.277 209.733 140.097 209.754 132.89C209.776 125.662 210.952 119.524 213.283 114.477C215.635 109.43 218.971 105.592 223.291 102.961C227.632 100.331 232.786 99.0156 238.753 99.0156C244.719 99.0156 249.873 100.341 254.214 102.993C258.555 105.624 261.902 109.462 264.255 114.509C266.607 119.556 267.772 125.683 267.751 132.89C267.751 140.139 266.575 146.341 264.223 151.495C261.87 156.649 258.523 160.594 254.182 163.332C249.862 166.048 244.719 167.405 238.753 167.405ZM238.753 152.906C241.832 152.906 244.356 151.302 246.323 148.095C248.312 144.865 249.296 139.797 249.274 132.89C249.253 126.132 248.258 121.192 246.291 118.07C244.345 114.948 241.832 113.386 238.753 113.386C235.673 113.386 233.161 114.948 231.214 118.07C229.268 121.192 228.274 126.132 228.231 132.89C228.21 139.797 229.183 144.865 231.15 148.095C233.139 151.302 235.673 152.906 238.753 152.906Z" fill="white" fill-opacity="0.5"/>
<path fill-rule="evenodd" clip-rule="evenodd" d="M363.906 89.0942H358.483V78.2601H363.906L364.387 89.0942H363.906ZM230.513 37.6131H225.09V26.779H230.513V37.6131ZM227.551 21.3619H225.09V18.9031V16.1946H227.801H236.185V21.6117H227.801L227.551 21.3619ZM241.608 21.6117V16.1946H252.453V21.6117H241.608ZM257.895 21.6117V16.1946H268.74V21.6117H257.895ZM274.163 21.6117V16.1946H285.008V21.6117H274.163ZM290.45 21.6117V16.1946H301.296V21.6117H290.45ZM306.718 21.6117V16.1946H317.564V21.6117H306.718ZM321.794 132.411H331.293V126.994H321.794L322.275 132.411H321.794ZM336.716 132.411V126.994H347.561V132.411H337.177H336.716ZM353.003 132.411V126.994H361.195V127.052H363.906V129.703V132.411H361.195H353.003ZM363.906 121.616H358.483V110.782H363.906L364.387 121.616H363.906ZM363.906 105.365H358.483V94.5305H363.906L364.387 105.365H363.906ZM386.02 47.6788C386.116 47.6788 386.212 47.6788 386.289 47.698C386.885 46.6607 387.424 45.5658 387.924 44.4132C387.943 44.394 387.943 44.3748 387.962 44.3556C388.693 42.6075 389.27 40.8018 389.635 38.9193C389.923 37.4594 390.116 35.9803 390.173 34.4435H381.366C381.212 38.9193 379.866 43.3183 377.386 47.6596L386.02 47.6788ZM384.481 50.4834H375.617C372.925 54.3829 369.29 58.2247 364.752 62.0282C365.464 61.9322 366.175 61.8169 366.867 61.6824C368.771 61.2982 370.598 60.7412 372.367 59.9728C374.155 59.2044 375.828 58.3016 377.386 57.2643C378.943 56.227 380.366 55.0552 381.693 53.7297C382.712 52.7117 383.655 51.6359 384.481 50.4834ZM357.176 62.0282C352.638 58.2247 349.003 54.3829 346.311 50.4834H337.447C338.293 51.6359 339.235 52.7117 340.254 53.7297C341.581 55.0552 343.004 56.227 344.561 57.2643C346.1 58.3016 347.773 59.2044 349.58 59.9728C349.6 59.992 349.619 59.992 349.638 60.0112C351.388 60.7412 353.195 61.3175 355.08 61.6824C355.772 61.8169 356.484 61.9322 357.195 62.0282H357.176ZM335.581 47.6788H344.504C342.023 43.3375 340.677 38.9193 340.523 34.4627H331.716C331.793 35.9995 331.966 37.4786 332.255 38.9385C332.639 40.8403 333.197 42.6651 333.966 44.4324C334.447 45.5658 334.985 46.6415 335.581 47.6788ZM331.716 31.639H340.581C340.908 27.2592 342.369 22.8603 344.965 18.4229H335.581C334.985 19.4602 334.447 20.5359 333.966 21.6693C333.947 21.6885 333.947 21.7077 333.928 21.7269C333.197 23.475 332.62 25.2807 332.255 27.1632C331.966 28.6231 331.774 30.1022 331.716 31.639ZM337.408 15.6183H346.773C349.446 11.7765 352.965 7.91538 357.349 4.03508C356.561 4.13113 355.791 4.24639 355.041 4.40006C353.138 4.78425 351.311 5.34132 349.542 6.10969C347.754 6.87807 346.081 7.78091 344.523 8.81822C342.965 9.85552 341.542 11.0273 340.216 12.3527C339.196 13.3516 338.254 14.4274 337.408 15.6183ZM364.521 4.01587C368.925 7.89617 372.444 11.7573 375.098 15.5991H384.462C383.616 14.4466 382.674 13.3708 381.655 12.3527C380.328 11.0273 378.905 9.85552 377.347 8.81822C375.809 7.78091 374.136 6.87807 372.329 6.10969C372.309 6.09049 372.29 6.09049 372.271 6.07128C370.521 5.34132 368.713 4.76504 366.829 4.40006C366.06 4.24639 365.291 4.13113 364.521 4.01587ZM386.308 18.4229H376.924C379.52 22.8603 380.982 27.2592 381.309 31.639H390.173C390.096 30.1022 389.923 28.6231 389.635 27.1632C389.25 25.2614 388.693 23.4366 387.924 21.6693C387.443 20.5359 386.904 19.4602 386.308 18.4229ZM354.503 1.63391C356.58 1.2113 358.733 1 360.945 1C363.156 1 365.291 1.2113 367.387 1.63391C369.444 2.03731 371.425 2.65201 373.367 3.47801C373.386 3.47801 373.425 3.49722 373.444 3.51643C375.367 4.34243 377.194 5.34132 378.905 6.47467C380.616 7.60803 382.193 8.91426 383.635 10.355C385.097 11.7957 386.385 13.3708 387.52 15.0805C388.673 16.7901 389.654 18.615 390.481 20.5359C391.327 22.4953 391.942 24.5123 392.365 26.5869C392.789 28.6615 393 30.813 393 33.022C393 35.2311 392.789 37.3634 392.365 39.4572C391.962 41.5126 391.346 43.4911 390.519 45.4313C390.519 45.4505 390.5 45.4889 390.481 45.5081C389.654 47.4483 388.654 49.254 387.52 50.9636C386.385 52.6732 385.078 54.2484 383.635 55.6891C382.193 57.149 380.616 58.436 378.905 59.5694C377.194 60.722 375.367 61.7016 373.444 62.5276C371.482 63.3728 369.463 63.9875 367.387 64.4102C365.31 64.8328 363.156 65.0441 360.945 65.0441C358.733 65.0441 356.599 64.8328 354.503 64.4102C352.445 64.0068 350.465 63.3921 348.523 62.5661C348.503 62.5661 348.465 62.5468 348.446 62.5276C346.523 61.7016 344.696 60.7027 342.985 59.5694C341.273 58.436 339.696 57.1298 338.254 55.6891C336.793 54.2484 335.504 52.6732 334.37 50.9636C333.216 49.254 332.235 47.4291 331.409 45.5081C330.563 43.5488 329.947 41.5318 329.524 39.4572C329.101 37.3826 328.89 35.2311 328.89 33.022C328.89 30.813 329.101 28.6807 329.524 26.5869C329.928 24.5315 330.543 22.5529 331.37 20.6128C331.37 20.5936 331.389 20.5551 331.409 20.5359C332.235 18.5958 333.235 16.7901 334.37 15.0805C335.504 13.3708 336.812 11.7957 338.254 10.355C339.696 8.89505 341.273 7.60803 342.985 6.47467C344.696 5.32211 346.523 4.34243 348.446 3.51643C350.388 2.67122 352.426 2.05652 354.503 1.63391ZM362.349 5.84076V15.5991H371.656C369.213 12.372 366.117 9.12557 362.349 5.84076ZM362.349 18.4229V31.639H378.501C378.136 27.2976 376.521 22.8987 373.636 18.4229H362.349ZM362.349 34.4435V47.6596H374.098C376.886 43.2798 378.367 38.8809 378.54 34.4435H362.349ZM362.349 50.4834V60.357C366.329 57.0914 369.598 53.7874 372.136 50.4834H362.349ZM359.541 60.357V50.4834H349.753C352.272 53.7874 355.541 57.0914 359.541 60.357ZM359.541 47.6788V34.4627H343.331C343.504 38.9001 345.004 43.299 347.773 47.6788H359.541ZM359.541 31.639V18.4229H348.253C345.369 22.8987 343.754 27.2976 343.388 31.639H359.541ZM359.541 15.6183V5.84076C355.772 9.12557 352.676 12.372 350.234 15.5991H359.541V15.6183Z" fill="#BDBDBD"/>
<path fill-rule="evenodd" clip-rule="evenodd" d="M363.906 89.0942H358.483V78.2601H363.906L364.387 89.0942H363.906ZM230.513 37.6131H225.09V26.779H230.513V37.6131ZM227.551 21.3619H225.09V18.9031V16.1946H227.801H236.185V21.6117H227.801L227.551 21.3619ZM241.608 21.6117V16.1946H252.453V21.6117H241.608ZM257.895 21.6117V16.1946H268.74V21.6117H257.895ZM274.163 21.6117V16.1946H285.008V21.6117H274.163ZM290.45 21.6117V16.1946H301.296V21.6117H290.45ZM306.718 21.6117V16.1946H317.564V21.6117H306.718ZM321.794 132.411H331.293V126.994H321.794L322.275 132.411H321.794ZM336.716 132.411V126.994H347.561V132.411H337.177H336.716ZM353.003 132.411V126.994H361.195V127.052H363.906V129.703V132.411H361.195H353.003ZM363.906 121.616H358.483V110.782H363.906L364.387 121.616H363.906ZM363.906 105.365H358.483V94.5305H363.906L364.387 105.365H363.906ZM386.02 47.6788C386.116 47.6788 386.212 47.6788 386.289 47.698C386.885 46.6607 387.424 45.5658 387.924 44.4132C387.943 44.394 387.943 44.3748 387.962 44.3556C388.693 42.6075 389.27 40.8018 389.635 38.9193C389.923 37.4594 390.116 35.9803 390.173 34.4435H381.366C381.212 38.9193 379.866 43.3183 377.386 47.6596L386.02 47.6788ZM384.481 50.4834H375.617C372.925 54.3829 369.29 58.2247 364.752 62.0282C365.464 61.9322 366.175 61.8169 366.867 61.6824C368.771 61.2982 370.598 60.7412 372.367 59.9728C374.155 59.2044 375.828 58.3016 377.386 57.2643C378.943 56.227 380.366 55.0552 381.693 53.7297C382.712 52.7117 383.655 51.6359 384.481 50.4834ZM357.176 62.0282C352.638 58.2247 349.003 54.3829 346.311 50.4834H337.447C338.293 51.6359 339.235 52.7117 340.254 53.7297C341.581 55.0552 343.004 56.227 344.561 57.2643C346.1 58.3016 347.773 59.2044 349.58 59.9728C349.6 59.992 349.619 59.992 349.638 60.0112C351.388 60.7412 353.195 61.3175 355.08 61.6824C355.772 61.8169 356.484 61.9322 357.195 62.0282H357.176ZM335.581 47.6788H344.504C342.023 43.3375 340.677 38.9193 340.523 34.4627H331.716C331.793 35.9995 331.966 37.4786 332.255 38.9385C332.639 40.8403 333.197 42.6651 333.966 44.4324C334.447 45.5658 334.985 46.6415 335.581 47.6788ZM331.716 31.639H340.581C340.908 27.2592 342.369 22.8603 344.965 18.4229H335.581C334.985 19.4602 334.447 20.5359 333.966 21.6693C333.947 21.6885 333.947 21.7077 333.928 21.7269C333.197 23.475 332.62 25.2807 332.255 27.1632C331.966 28.6231 331.774 30.1022 331.716 31.639ZM337.408 15.6183H346.773C349.446 11.7765 352.965 7.91538 357.349 4.03508C356.561 4.13113 355.791 4.24639 355.041 4.40006C353.138 4.78425 351.311 5.34132 349.542 6.10969C347.754 6.87807 346.081 7.78091 344.523 8.81822C342.965 9.85552 341.542 11.0273 340.216 12.3527C339.196 13.3516 338.254 14.4274 337.408 15.6183ZM364.521 4.01587C368.925 7.89617 372.444 11.7573 375.098 15.5991H384.462C383.616 14.4466 382.674 13.3708 381.655 12.3527C380.328 11.0273 378.905 9.85552 377.347 8.81822C375.809 7.78091 374.136 6.87807 372.329 6.10969C372.309 6.09049 372.29 6.09049 372.271 6.07128C370.521 5.34132 368.713 4.76504 366.829 4.40006C366.06 4.24639 365.291 4.13113 364.521 4.01587ZM386.308 18.4229H376.924C379.52 22.8603 380.982 27.2592 381.309 31.639H390.173C390.096 30.1022 389.923 28.6231 389.635 27.1632C389.25 25.2614 388.693 23.4366 387.924 21.6693C387.443 20.5359 386.904 19.4602 386.308 18.4229ZM354.503 1.63391C356.58 1.2113 358.733 1 360.945 1C363.156 1 365.291 1.2113 367.387 1.63391C369.444 2.03731 371.425 2.65201 373.367 3.47801C373.386 3.47801 373.425 3.49722 373.444 3.51643C375.367 4.34243 377.194 5.34132 378.905 6.47467C380.616 7.60803 382.193 8.91426 383.635 10.355C385.097 11.7957 386.385 13.3708 387.52 15.0805C388.673 16.7901 389.654 18.615 390.481 20.5359C391.327 22.4953 391.942 24.5123 392.365 26.5869C392.789 28.6615 393 30.813 393 33.022C393 35.2311 392.789 37.3634 392.365 39.4572C391.962 41.5126 391.346 43.4911 390.519 45.4313C390.519 45.4505 390.5 45.4889 390.481 45.5081C389.654 47.4483 388.654 49.254 387.52 50.9636C386.385 52.6732 385.078 54.2484 383.635 55.6891C382.193 57.149 380.616 58.436 378.905 59.5694C377.194 60.722 375.367 61.7016 373.444 62.5276C371.482 63.3728 369.463 63.9875 367.387 64.4102C365.31 64.8328 363.156 65.0441 360.945 65.0441C358.733 65.0441 356.599 64.8328 354.503 64.4102C352.445 64.0068 350.465 63.3921 348.523 62.5661C348.503 62.5661 348.465 62.5468 348.446 62.5276C346.523 61.7016 344.696 60.7027 342.985 59.5694C341.273 58.436 339.696 57.1298 338.254 55.6891C336.793 54.2484 335.504 52.6732 334.37 50.9636C333.216 49.254 332.235 47.4291 331.409 45.5081C330.563 43.5488 329.947 41.5318 329.524 39.4572C329.101 37.3826 328.89 35.2311 328.89 33.022C328.89 30.813 329.101 28.6807 329.524 26.5869C329.928 24.5315 330.543 22.5529 331.37 20.6128C331.37 20.5936 331.389 20.5551 331.409 20.5359C332.235 18.5958 333.235 16.7901 334.37 15.0805C335.504 13.3708 336.812 11.7957 338.254 10.355C339.696 8.89505 341.273 7.60803 342.985 6.47467C344.696 5.32211 346.523 4.34243 348.446 3.51643C350.388 2.67122 352.426 2.05652 354.503 1.63391ZM362.349 5.84076V15.5991H371.656C369.213 12.372 366.117 9.12557 362.349 5.84076ZM362.349 18.4229V31.639H378.501C378.136 27.2976 376.521 22.8987 373.636 18.4229H362.349ZM362.349 34.4435V47.6596H374.098C376.886 43.2798 378.367 38.8809 378.54 34.4435H362.349ZM362.349 50.4834V60.357C366.329 57.0914 369.598 53.7874 372.136 50.4834H362.349ZM359.541 60.357V50.4834H349.753C352.272 53.7874 355.541 57.0914 359.541 60.357ZM359.541 47.6788V34.4627H343.331C343.504 38.9001 345.004 43.299 347.773 47.6788H359.541ZM359.541 31.639V18.4229H348.253C345.369 22.8987 343.754 27.2976 343.388 31.639H359.541ZM359.541 15.6183V5.84076C355.772 9.12557 352.676 12.372 350.234 15.5991H359.541V15.6183Z" fill="white" fill-opacity="0.75"/>
<rect x="328" y="4.38306" width="6.19875" height="88.5536" transform="rotate(-45 328 4.38306)" fill="#C4C4C4"/>
<rect width="6.19875" height="88.5536" transform="matrix(-0.707107 -0.707107 -0.707107 0.707107 395 4.38306)" fill="#C4C4C4"/>
<path d="M1.86506 345.975V327.066H14.1634V329.937H5.29048V335.071H13.5263V337.942H5.29048V343.104H14.2372V345.975H1.86506ZM17.658 345.975V327.066H24.7489C26.9218 327.066 28.5745 327.623 29.707 328.737C30.8458 329.851 31.4151 331.31 31.4151 333.114C31.4151 334.4 31.1258 335.505 30.5472 336.428C29.9686 337.352 29.1254 338.035 28.0174 338.478L32.1076 345.975H28.2852L24.5735 339.05H21.0835V345.975H17.658ZM21.0835 336.207H24.2411C25.5091 336.207 26.4386 335.942 27.0295 335.413C27.6265 334.883 27.9251 334.117 27.9251 333.114C27.9251 332.104 27.6265 331.322 27.0295 330.768C26.4386 330.208 25.503 329.928 24.2227 329.928H21.0835V336.207ZM34.5682 345.975V327.066H41.6591C43.8319 327.066 45.4846 327.623 46.6172 328.737C47.7559 329.851 48.3253 331.31 48.3253 333.114C48.3253 334.4 48.036 335.505 47.4574 336.428C46.8788 337.352 46.0355 338.035 44.9276 338.478L49.0178 345.975H45.1953L41.4837 339.05H37.9936V345.975H34.5682ZM37.9936 336.207H41.1513C42.4193 336.207 43.3487 335.942 43.9396 335.413C44.5367 334.883 44.8352 334.117 44.8352 333.114C44.8352 332.104 44.5367 331.322 43.9396 330.768C43.3487 330.208 42.4131 329.928 41.1328 329.928H37.9936V336.207ZM68.3746 336.521C68.3746 338.558 67.993 340.303 67.2298 341.756C66.4727 343.202 65.4386 344.31 64.1275 345.08C62.8226 345.849 61.3422 346.234 59.6864 346.234C58.0307 346.234 56.5472 345.849 55.2362 345.08C53.9251 344.304 52.891 343.193 52.1339 341.746C51.3768 340.294 50.9982 338.552 50.9982 336.521C50.9982 334.483 51.3768 332.741 52.1339 331.295C52.891 329.842 53.9251 328.731 55.2362 327.962C56.5472 327.192 58.0307 326.807 59.6864 326.807C61.3422 326.807 62.8226 327.192 64.1275 327.962C65.4386 328.731 66.4727 329.842 67.2298 331.295C67.993 332.741 68.3746 334.483 68.3746 336.521ZM64.9308 336.521C64.9308 334.366 64.4414 332.723 63.4627 331.59C62.4902 330.451 61.2314 329.882 59.6864 329.882C58.1476 329.882 56.8888 330.451 55.9102 331.59C54.9315 332.723 54.4421 334.366 54.4421 336.521C54.4421 338.669 54.9315 340.312 55.9102 341.451C56.8888 342.59 58.1476 343.159 59.6864 343.159C61.2314 343.159 62.4902 342.59 63.4627 341.451C64.4414 340.312 64.9308 338.669 64.9308 336.521ZM71.6131 345.975V327.066H78.704C80.8768 327.066 82.5295 327.623 83.6621 328.737C84.8008 329.851 85.3702 331.31 85.3702 333.114C85.3702 334.4 85.0809 335.505 84.5023 336.428C83.9237 337.352 83.0804 338.035 81.9725 338.478L86.0627 345.975H82.2402L78.5286 339.05H75.0385V345.975H71.6131ZM75.0385 336.207H78.1962C79.4642 336.207 80.3936 335.942 80.9846 335.413C81.5816 334.883 81.8801 334.117 81.8801 333.114C81.8801 332.104 81.5816 331.322 80.9846 330.768C80.3936 330.208 79.458 329.928 78.1777 329.928H75.0385V336.207ZM96.8837 343.704C96.3236 343.704 95.8435 343.507 95.4434 343.113C95.0433 342.713 94.8463 342.233 94.8525 341.673C94.8463 341.119 95.0433 340.645 95.4434 340.251C95.8435 339.857 96.3236 339.66 96.8837 339.66C97.4315 339.66 97.9055 339.857 98.3056 340.251C98.7057 340.645 98.9088 341.119 98.915 341.673C98.9088 342.233 98.7057 342.713 98.3056 343.113C97.9055 343.507 97.4315 343.704 96.8837 343.704ZM96.8837 334.323C96.3236 334.323 95.8435 334.126 95.4434 333.732C95.0433 333.332 94.8463 332.852 94.8525 332.292C94.8463 331.738 95.0433 331.264 95.4434 330.87C95.8435 330.476 96.3236 330.279 96.8837 330.279C97.4315 330.279 97.9055 330.476 98.3056 330.87C98.7057 331.264 98.9088 331.738 98.915 332.292C98.9088 332.852 98.7057 333.332 98.3056 333.732C97.9055 334.126 97.4315 334.323 96.8837 334.323ZM115.352 346.234C114.121 346.234 113.019 346.003 112.047 345.541C111.074 345.073 110.301 344.433 109.729 343.621C109.157 342.808 108.855 341.879 108.824 340.832H112.148C112.21 341.608 112.545 342.242 113.154 342.734C113.764 343.221 114.496 343.464 115.352 343.464C116.361 343.464 117.192 343.125 117.845 342.448C118.503 341.771 118.83 340.903 118.824 339.844C118.83 338.773 118.497 337.893 117.826 337.204C117.155 336.514 116.3 336.167 115.26 336.16C114.693 336.154 114.136 336.259 113.588 336.474C113.041 336.69 112.607 336.973 112.287 337.324L109.194 336.816L110.181 327.066H121.15V329.928H113.016L112.471 334.942H112.582C112.933 334.523 113.428 334.178 114.069 333.908C114.709 333.637 115.41 333.501 116.174 333.501C117.319 333.501 118.34 333.772 119.239 334.314C120.138 334.849 120.846 335.588 121.363 336.53C121.88 337.472 122.138 338.549 122.138 339.761C122.138 341.011 121.849 342.125 121.27 343.104C120.698 344.076 119.901 344.843 118.879 345.403C117.863 345.957 116.688 346.234 115.352 346.234ZM132.221 346.335C129.943 346.335 128.158 345.477 126.865 343.759C125.579 342.042 124.936 339.635 124.936 336.539C124.942 333.449 125.588 331.055 126.875 329.356C128.167 327.657 129.949 326.807 132.221 326.807C134.492 326.807 136.274 327.66 137.566 329.365C138.859 331.064 139.505 333.455 139.505 336.539C139.505 339.641 138.862 342.051 137.576 343.768C136.289 345.486 134.504 346.341 132.221 346.335ZM132.221 343.445C133.402 343.445 134.335 342.864 135.018 341.7C135.708 340.531 136.052 338.81 136.052 336.539C136.046 334.286 135.698 332.578 135.009 331.415C134.326 330.245 133.396 329.66 132.221 329.66C131.051 329.66 130.122 330.245 129.432 331.415C128.749 332.578 128.404 334.286 128.398 336.539C128.392 338.81 128.734 340.531 129.423 341.7C130.112 342.864 131.045 343.445 132.221 343.445ZM149.562 346.335C147.285 346.335 145.5 345.477 144.207 343.759C142.921 342.042 142.278 339.635 142.278 336.539C142.284 333.449 142.93 331.055 144.216 329.356C145.509 327.657 147.291 326.807 149.562 326.807C151.834 326.807 153.616 327.66 154.908 329.365C156.201 331.064 156.847 333.455 156.847 336.539C156.847 339.641 156.204 342.051 154.917 343.768C153.631 345.486 151.846 346.341 149.562 346.335ZM149.562 343.445C150.744 343.445 151.677 342.864 152.36 341.7C153.049 340.531 153.394 338.81 153.394 336.539C153.388 334.286 153.04 332.578 152.351 331.415C151.667 330.245 150.738 329.66 149.562 329.66C148.393 329.66 147.463 330.245 146.774 331.415C146.091 332.578 145.746 334.286 145.74 336.539C145.734 338.81 146.075 340.531 146.765 341.7C147.454 342.864 148.387 343.445 149.562 343.445ZM184.927 327.066H188.343V339.567C188.343 340.995 188.008 342.208 187.337 343.205C186.666 344.202 185.752 344.963 184.594 345.486C183.437 346.003 182.129 346.261 180.67 346.261C179.212 346.261 177.904 346.003 176.746 345.486C175.589 344.963 174.675 344.202 174.004 343.205C173.333 342.208 172.998 340.995 172.998 339.567V327.066H176.423V339.484C176.423 340.26 176.611 340.925 176.987 341.479C177.368 342.026 177.879 342.448 178.519 342.744C179.165 343.033 179.883 343.178 180.67 343.178C181.464 343.178 182.182 343.033 182.822 342.744C183.468 342.448 183.979 342.026 184.354 341.479C184.736 340.925 184.927 340.26 184.927 339.484V327.066ZM207.605 327.066V345.975H204.558L195.649 333.095H195.492V345.975H192.066V327.066H195.132L204.032 339.955H204.198V327.066H207.605ZM211.338 345.975V327.066H223.636V329.937H214.763V335.071H222.999V337.942H214.763V343.104H223.71V345.975H211.338ZM229.993 327.066L234.157 333.991H234.305L238.487 327.066H242.393L236.567 336.521L242.485 345.975H238.515L234.305 339.097H234.157L229.947 345.975H225.995L231.969 336.521L226.069 327.066H229.993ZM245.082 345.975V327.066H252.173C253.625 327.066 254.844 327.337 255.829 327.879C256.82 328.42 257.568 329.162 258.073 330.104C258.584 331.045 258.839 332.12 258.839 333.326C258.839 334.539 258.584 335.616 258.073 336.557C257.562 337.499 256.808 338.241 255.811 338.783C254.813 339.318 253.585 339.586 252.127 339.586H248.507V345.975H245.082ZM248.507 336.77H251.665C252.939 336.77 253.872 336.447 254.463 335.8C255.053 335.154 255.349 334.329 255.349 333.326C255.349 332.316 255.053 331.498 254.463 330.87C253.872 330.242 252.933 329.928 251.646 329.928H248.507V336.77ZM261.814 345.975V327.066H274.113V329.937H265.24V335.071H273.475V337.942H265.24V343.104H274.186V345.975H261.814ZM293.793 333.446H290.339C290.143 332.313 289.632 331.436 288.807 330.815C287.982 330.193 286.994 329.882 285.843 329.882C284.298 329.882 283.033 330.455 282.048 331.599C281.063 332.744 280.571 334.385 280.571 336.521C280.571 338.687 281.063 340.337 282.048 341.469C283.039 342.596 284.301 343.159 285.834 343.159C286.966 343.159 287.945 342.861 288.77 342.263C289.601 341.66 290.124 340.805 290.339 339.697L293.793 339.715C293.62 340.922 293.186 342.017 292.491 343.002C291.795 343.987 290.878 344.772 289.739 345.356C288.607 345.941 287.29 346.234 285.788 346.234C284.126 346.234 282.642 345.849 281.337 345.08C280.032 344.304 279.004 343.193 278.254 341.746C277.503 340.294 277.127 338.552 277.127 336.521C277.127 334.483 277.506 332.741 278.263 331.295C279.02 329.842 280.051 328.731 281.356 327.962C282.667 327.192 284.144 326.807 285.788 326.807C287.185 326.807 288.45 327.069 289.582 327.592C290.721 328.115 291.66 328.873 292.398 329.864C293.137 330.848 293.602 332.043 293.793 333.446ZM296.099 329.937V327.066H311.185V329.937H305.341V345.975H301.943V329.937H296.099ZM314.094 345.975V327.066H326.392V329.937H317.519V335.071H325.755V337.942H317.519V343.104H326.466V345.975H314.094ZM336.294 345.975H329.887V327.066H336.423C338.301 327.066 339.914 327.445 341.262 328.202C342.616 328.953 343.656 330.033 344.382 331.442C345.109 332.852 345.472 334.539 345.472 336.502C345.472 338.472 345.106 340.164 344.373 341.58C343.647 342.996 342.597 344.082 341.225 344.839C339.858 345.597 338.215 345.975 336.294 345.975ZM333.312 343.011H336.128C340.092 343.011 342.074 340.842 342.074 336.502C342.074 332.187 340.126 330.03 336.23 330.03H333.312V343.011ZM355.176 345.975V327.066H367.474V329.937H358.601V335.071H366.837V337.942H358.601V343.104H367.548V345.975H355.176ZM370.969 345.975V327.066H378.059C380.232 327.066 381.885 327.623 383.018 328.737C384.156 329.851 384.726 331.31 384.726 333.114C384.726 334.4 384.436 335.505 383.858 336.428C383.279 337.352 382.436 338.035 381.328 338.478L385.418 345.975H381.596L377.884 339.05H374.394V345.975H370.969ZM374.394 336.207H377.552C378.82 336.207 379.749 335.942 380.34 335.413C380.937 334.883 381.236 334.117 381.236 333.114C381.236 332.104 380.937 331.322 380.34 330.768C379.749 330.208 378.814 329.928 377.533 329.928H374.394V336.207ZM387.879 345.975V327.066H394.97C397.142 327.066 398.795 327.623 399.928 328.737C401.066 329.851 401.636 331.31 401.636 333.114C401.636 334.4 401.347 335.505 400.768 336.428C400.189 337.352 399.346 338.035 398.238 338.478L402.328 345.975H398.506L394.794 339.05H391.304V345.975H387.879ZM391.304 336.207H394.462C395.73 336.207 396.659 335.942 397.25 335.413C397.847 334.883 398.146 334.117 398.146 333.114C398.146 332.104 397.847 331.322 397.25 330.768C396.659 330.208 395.724 329.928 394.443 329.928H391.304V336.207ZM421.685 336.521C421.685 338.558 421.304 340.303 420.54 341.756C419.783 343.202 418.749 344.31 417.438 345.08C416.133 345.849 414.653 346.234 412.997 346.234C411.341 346.234 409.858 345.849 408.547 345.08C407.236 344.304 406.202 343.193 405.444 341.746C404.687 340.294 404.309 338.552 404.309 336.521C404.309 334.483 404.687 332.741 405.444 331.295C406.202 329.842 407.236 328.731 408.547 327.962C409.858 327.192 411.341 326.807 412.997 326.807C414.653 326.807 416.133 327.192 417.438 327.962C418.749 328.731 419.783 329.842 420.54 331.295C421.304 332.741 421.685 334.483 421.685 336.521ZM418.241 336.521C418.241 334.366 417.752 332.723 416.773 331.59C415.801 330.451 414.542 329.882 412.997 329.882C411.458 329.882 410.199 330.451 409.221 331.59C408.242 332.723 407.753 334.366 407.753 336.521C407.753 338.669 408.242 340.312 409.221 341.451C410.199 342.59 411.458 343.159 412.997 343.159C414.542 343.159 415.801 342.59 416.773 341.451C417.752 340.312 418.241 338.669 418.241 336.521ZM424.924 345.975V327.066H432.015C434.187 327.066 435.84 327.623 436.973 328.737C438.111 329.851 438.681 331.31 438.681 333.114C438.681 334.4 438.391 335.505 437.813 336.428C437.234 337.352 436.391 338.035 435.283 338.478L439.373 345.975H435.551L431.839 339.05H428.349V345.975H424.924ZM428.349 336.207H431.507C432.775 336.207 433.704 335.942 434.295 335.413C434.892 334.883 435.191 334.117 435.191 333.114C435.191 332.104 434.892 331.322 434.295 330.768C433.704 330.208 432.769 329.928 431.488 329.928H428.349V336.207Z" fill="#828282"/>
</svg>
