<svg xmlns="http://www.w3.org/2000/svg" width="50" height="50" viewBox="0 0 50 50">
  <g id="Group_191" data-name="Group 191" transform="translate(-979.659 -5314)">
    <circle id="Ellipse_6" data-name="Ellipse 6" cx="25" cy="25" r="25" transform="translate(979.659 5314)" fill="#fefefe"/>
    <path id="Path_525" data-name="Path 525" d="M981.47,224.15l-3.15-.01c-3.53,0-5.82,2.35-5.82,5.97v2.76h-3.16a.493.493,0,0,0-.5.49v3.99a.5.5,0,0,0,.5.5h3.16v10.06a.5.5,0,0,0,.5.5h4.12a.5.5,0,0,0,.5-.5V237.85h3.7a.5.5,0,0,0,.49-.5l.01-3.99a.529.529,0,0,0-.15-.35.5.5,0,0,0-.35-.14h-3.7v-2.34c0-1.12.27-1.69,1.73-1.69h2.12a.491.491,0,0,0,.49-.49v-3.71a.491.491,0,0,0-.49-.49Z" transform="translate(28.747 5102)" fill="#f05a22" fill-rule="evenodd"/>
  </g>
</svg>
