<svg xmlns="http://www.w3.org/2000/svg" width="50" height="50" viewBox="0 0 50 50">
  <g id="Group_194" data-name="Group 194" transform="translate(-1209.55 -5313.78)">
    <circle id="Ellipse_9" data-name="Ellipse 9" cx="25" cy="25" r="25" transform="translate(1209.55 5313.78)" fill="#fefefe"/>
    <g id="_1815697841744" transform="translate(1221.92 5326.14)">
      <path id="Path_531" data-name="Path 531" d="M1216.81,231.28a8.72,8.72,0,0,0-.56-2.95,6.018,6.018,0,0,0-1.4-2.15,5.886,5.886,0,0,0-2.15-1.4,8.708,8.708,0,0,0-2.94-.56c-1.3-.06-1.72-.08-5.01-.08s-3.71.02-5,.07a8.822,8.822,0,0,0-2.94.57,5.843,5.843,0,0,0-2.16,1.4,6.155,6.155,0,0,0-1.4,2.15,9.173,9.173,0,0,0-.56,2.94c-.06,1.3-.08,1.71-.08,5.01s.02,3.7.08,5a8.656,8.656,0,0,0,.56,2.94,5.977,5.977,0,0,0,1.4,2.15,5.886,5.886,0,0,0,2.15,1.4,8.879,8.879,0,0,0,2.94.57c1.3.05,1.71.07,5,.07s3.71-.02,5.01-.07a8.877,8.877,0,0,0,2.94-.57,6.206,6.206,0,0,0,3.55-3.55,8.656,8.656,0,0,0,.56-2.94c.06-1.3.08-1.71.08-5S1216.87,232.57,1216.81,231.28Zm-2.18,9.9a6.4,6.4,0,0,1-.42,2.25,4.054,4.054,0,0,1-2.3,2.31,7.04,7.04,0,0,1-2.25.42c-1.28.05-1.67.07-4.91.07s-3.62-.02-4.9-.07a7.04,7.04,0,0,1-2.25-.42,3.773,3.773,0,0,1-1.39-.91,3.693,3.693,0,0,1-.91-1.39,7.041,7.041,0,0,1-.42-2.25c-.05-1.28-.07-1.67-.07-4.9s.02-3.63.07-4.91a7.041,7.041,0,0,1,.42-2.25,3.772,3.772,0,0,1,.91-1.39,3.941,3.941,0,0,1,1.4-.91,6.777,6.777,0,0,1,2.25-.41c1.28-.06,1.66-.07,4.9-.07s3.63.01,4.9.07a6.718,6.718,0,0,1,2.25.41,3.855,3.855,0,0,1,1.4.91,3.748,3.748,0,0,1,.9,1.39,6.511,6.511,0,0,1,.42,2.25c.06,1.28.07,1.67.07,4.91S1214.69,239.9,1214.63,241.18Z" transform="translate(-1192.61 -224.14)" fill="#f05a22" fill-rule="evenodd"/>
      <path id="Path_532" data-name="Path 532" d="M1204.75,230.04a6.235,6.235,0,1,0,6.23,6.24A6.24,6.24,0,0,0,1204.75,230.04Zm0,10.28a4.045,4.045,0,1,1,4.04-4.04A4.042,4.042,0,0,1,1204.75,240.32Z" transform="translate(-1192.61 -224.14)" fill="#f05a22" fill-rule="evenodd"/>
      <path id="Path_533" data-name="Path 533" d="M1212.69,229.8a1.46,1.46,0,1,1-1.46-1.46A1.46,1.46,0,0,1,1212.69,229.8Z" transform="translate(-1192.61 -224.14)" fill="#f05a22" fill-rule="evenodd"/>
    </g>
  </g>
</svg>
