<svg xmlns="http://www.w3.org/2000/svg" width="128.3" height="136.85" viewBox="0 0 128.3 136.85">
  <g id="_2_insurance_injury" data-name="2_insurance injury" transform="translate(-20.03 -10.032)">
    <path id="Path_590" data-name="Path 590" d="M61.252,234.551c-.47-4.074-1.788-10.343-3.778-13.971a30.849,30.849,0,0,0-8.888-10.357H38.9a9,9,0,0,0-6.912,3.237c-2.786,3.34-6.525,9.808-8.735,21.768h3.625a265.674,265.674,0,0,0-1.822,27.766h38.1A268.557,268.557,0,0,0,61.252,234.551Z" transform="translate(-1.801 -116.112)" fill="#bfd6ef"/>
    <path id="Path_591" data-name="Path 591" d="M61.972,210.231H52.283a9,9,0,0,0-5.1,1.584c1.816,3.643,7.562,10.911,24.257,9.957-.187-.417-.38-.818-.582-1.185A30.808,30.808,0,0,0,61.972,210.231Z" transform="translate(-15.187 -114.796)" fill="#72a6ce"/>
    <path id="Path_592" data-name="Path 592" d="M61.5,247.725l-2.964-22.267c-.164-.926-2.495-.827-2.579.111l-2.526,28.125Z" transform="translate(-18.68 -124.272)" fill="#72a6ce"/>
    <path id="Path_593" data-name="Path 593" d="M57.314,289.533l-.115-1.775H28.567c-.255,2.97-.49,6.2-.657,9.484H51.093C54.721,297.242,57.584,293.694,57.314,289.533Z" transform="translate(-4.407 -159.475)" fill="#72a6ce"/>
    <path id="Path_594" data-name="Path 594" d="M64.873,191.087H60.389v8.437a4.319,4.319,0,0,0,1.714,3.421l.22.17a4.214,4.214,0,0,0,5.1,0l.22-.17a4.317,4.317,0,0,0,1.713-3.421v-8.437Z" transform="translate(-22.571 -103.844)" fill="#ffd6bb"/>
    <path id="Path_595" data-name="Path 595" d="M21.449,266.967a55.472,55.472,0,0,0-1.4,9.013,4.79,4.79,0,0,0,4.764,5.225h6.071V266.967Z" transform="translate(0 -147.847)" fill="#ffd6bb"/>
    <path id="Path_596" data-name="Path 596" d="M44.659,266.967h15.7a7.119,7.119,0,0,1,7.119,7.119h0a7.119,7.119,0,0,1-7.118,7.119h-15.7Z" transform="translate(-13.774 -147.847)" fill="#e9f4ff"/>
    <path id="Path_597" data-name="Path 597" d="M74.005,266.967a39.167,39.167,0,0,0,3.149,14.219,7.067,7.067,0,0,0,3.763-1.319,35.4,35.4,0,0,1-2.924-12.788,7.125,7.125,0,0,0-1.219-.112Z" transform="translate(-30.925 -147.847)" fill="#a3aec7"/>
    <path id="Path_598" data-name="Path 598" d="M60.39,191.087v4.085a22.345,22.345,0,0,0,8.967,2.837v-6.922Z" transform="translate(-22.572 -103.729)" fill="#f4a28c"/>
    <path id="Path_599" data-name="Path 599" d="M66.233,145.847v-5.938L40.376,128.3v17.549A12.928,12.928,0,0,0,53.3,158.776h0A12.928,12.928,0,0,0,66.233,145.847Z" transform="translate(-11.379 -68.101)" fill="#ffd6bb"/>
    <path id="Path_600" data-name="Path 600" d="M40.376,128.3v9.277L66.229,146c0-.049,0-.1,0-.146v-5.94Z" transform="translate(-11.379 -67.899)" fill="#f4a28c"/>
    <path id="Path_601" data-name="Path 601" d="M66.39,127.07l-.275-9.72c0-8.987-8.348-13.2-15.711-13.2h0a13.364,13.364,0,0,0-7.168,2.039c-5.254,3.335-5.994,6.985-6.831,10.8-.548,2.5-.413,4.223,1.56,5.2L62.037,129.6A2.958,2.958,0,0,0,66.39,127.07Z" transform="translate(-9.002 -54.129)" fill="#e9f4ff"/>
    <path id="Path_602" data-name="Path 602" d="M61.944,112.109,45.2,118.493l-6.8-1.949a21.188,21.188,0,0,0-1.265,4.161l29.759,8.527-.129-4.561L52.166,120.49l12.877-4.908A12.329,12.329,0,0,0,61.944,112.109Z" transform="translate(-9.562 -58.596)" fill="#a3aec7"/>
    <path id="Path_603" data-name="Path 603" d="M67.48,282.16h0a7.271,7.271,0,0,0-.041-.757c-3.624,3.5-10.942,3.176-10.942,3.176H44.659v4.7h15.7a7.119,7.119,0,0,0,7.119-7.118Z" transform="translate(-13.774 -155.921)" fill="#a3aec7"/>
    <path id="Path_604" data-name="Path 604" d="M23.314,285.68a3.019,3.019,0,0,1-3.078-2.447c-.065.583-.128,1.194-.186,1.844a4.79,4.79,0,0,0,4.764,5.225h6.071V285.68Z" transform="translate(0 -156.944)" fill="#f4a28c"/>
    <path id="Path_605" data-name="Path 605" d="M64.936,277.16l3.034,7.013H63.214l.567-6.823a.6.6,0,0,1,1.155-.19Z" transform="translate(-24.151 -153.345)" fill="#a3aec7"/>
    <path id="Path_606" data-name="Path 606" d="M44.659,247.868V212.417a4.619,4.619,0,0,1,2.287-4,7.767,7.767,0,0,1,4.646-1.019l2.5,35.775.067,4.7Z" transform="translate(-13.774 -114.51)" fill="#e9f4ff"/>
    <path id="Path_607" data-name="Path 607" d="M44.659,293.309h9.766l-.329-4.7-9.437.078Z" transform="translate(-13.774 -159.951)" fill="#a3aec7"/>
    <path id="Path_608" data-name="Path 608" d="M54.294,171.445a6.176,6.176,0,0,0,2.831,5.444,7.2,7.2,0,0,0,7.921,0,6.175,6.175,0,0,0,2.833-5.446Z" transform="translate(-19.16 -92.47)" fill="#ff7676"/>
    <path id="Path_609" data-name="Path 609" d="M48.057,208.412a4.535,4.535,0,0,0-1.41,1.291,15.887,15.887,0,0,0,6.722,7.169l-.665-9.479a7.767,7.767,0,0,0-4.647,1.019Z" transform="translate(-14.886 -113.104)" fill="#cad8e5"/>
    <path id="Path_610" data-name="Path 610" d="M216.1,173.507H192.163v15.962h11.2a8.053,8.053,0,0,0,5.374-2.055h0a8.055,8.055,0,0,1,5.374-2.055H216.1Z" transform="translate(-98.996 -93.819)" fill="#ffd6bb"/>
    <path id="Path_611" data-name="Path 611" d="M213.8,180.681a2.42,2.42,0,0,1-2.4,2.1h-.225a2.236,2.236,0,0,0-1.882,1.058,4.7,4.7,0,0,1-4.09,2.285H192.161v3.342h11.2a8.053,8.053,0,0,0,5.374-2.055h0a8.055,8.055,0,0,1,5.374-2.055H216.1V173.507H214.74Z" transform="translate(-98.995 -93.819)" fill="#f4a28c"/>
    <path id="Path_612" data-name="Path 612" d="M197.372,188.594a6.37,6.37,0,0,0,4.99-5.663v-1.469a5.251,5.251,0,0,1,3.223-4.892c.176-.072.358-.152.539-.243a.873.873,0,0,0-.339-1.655,7.738,7.738,0,0,1-.782-.066,5,5,0,0,1-2.4-1.087c-2.888-2.292-6.653-1.616-10.438-.871v15.962h5.153A.524.524,0,0,1,197.372,188.594Z" transform="translate(-98.776 -92.934)" fill="#f4a28c"/>
    <path id="Path_613" data-name="Path 613" d="M204.091,150.839a10.71,10.71,0,0,1-10.7-10.7V65.389a3.306,3.306,0,0,1,6.611,0v74.753a4.086,4.086,0,1,0,8.172,0v-2.164a3.306,3.306,0,0,1,6.611,0v2.164A10.71,10.71,0,0,1,204.091,150.839Z" transform="translate(-99.641 -30.934)" fill="#4f4c5b"/>
    <path id="Path_614" data-name="Path 614" d="M184.247,197.9h0a3.188,3.188,0,0,0-3.007-3.342h-6.387a3.189,3.189,0,0,0-3.007,3.342h0a3.188,3.188,0,0,0,3.007,3.342h6.387A3.187,3.187,0,0,0,184.247,197.9Z" transform="translate(-87.08 -105.714)" fill="#ffd6bb"/>
    <path id="Path_615" data-name="Path 615" d="M184.688,182.736h0a3.187,3.187,0,0,0-3.007-3.342h-6.827a3.188,3.188,0,0,0-3.007,3.342h0a3.188,3.188,0,0,0,3.007,3.342h6.827A3.188,3.188,0,0,0,184.688,182.736Z" transform="translate(-87.088 -97.026)" fill="#ffd6bb"/>
    <path id="Path_616" data-name="Path 616" d="M186.01,167.57h0A3.188,3.188,0,0,0,183,164.228h-8.15a3.188,3.188,0,0,0-3.007,3.342h0a3.188,3.188,0,0,0,3.007,3.342H183A3.187,3.187,0,0,0,186.01,167.57Z" transform="translate(-87.113 -88.337)" fill="#ffd6bb"/>
    <path id="Path_617" data-name="Path 617" d="M135.709,10.032s-31.743,1.4-51.167,26.725a.98.98,0,0,0,.723,1.576c4.131.217,14.329,1.39,22.255,7.564,0,0,9.324-6.476,28.187-6.476S163.894,45.9,163.894,45.9c7.926-6.174,18.124-7.347,22.257-7.564a.98.98,0,0,0,.723-1.576C167.451,11.437,135.709,10.032,135.709,10.032Z" transform="translate(-39.859)" fill="#ffdc6c"/>
    <path id="Path_618" data-name="Path 618" d="M190.974,42.577c1.4-.078,2.85-.124,4.372-.124,18.863,0,28.187,6.476,28.187,6.476,7.926-6.174,18.124-7.347,22.257-7.564a.98.98,0,0,0,.723-1.576C235.221,25.07,219.764,18.433,208.8,15.456,209.2,21.1,208.262,35.039,190.974,42.577Z" transform="translate(-99.496 -3.033)" fill="#fca742"/>
    <path id="Path_619" data-name="Path 619" d="M165.126,10.032C145.3,20.684,136.939,45.9,136.939,45.9s9.326-5.574,28.187-5.574S193.313,45.9,193.313,45.9,184.954,20.684,165.126,10.032Z" transform="translate(-68.029)" fill="#fff"/>
    <path id="Path_620" data-name="Path 620" d="M185,53.537c2.169-.171,4.5-.271,7.008-.271,18.863,0,28.187,5.574,28.187,5.574a79.667,79.667,0,0,0-15.324-25.664C203.338,40.01,198.559,48.6,185,53.537Z" transform="translate(-95.18 -12.944)" fill="#e6e6e6"/>
    <path id="Path_621" data-name="Path 621" d="M192.854,164.228h-3.345a7.424,7.424,0,0,0-.049.821V169.2a6,6,0,0,0,4.98,5.9,3.694,3.694,0,0,0,.1-.845h0a3.187,3.187,0,0,0-3.007-3.342h1.322a3.112,3.112,0,0,0,3.007-3.342h0A3.19,3.19,0,0,0,192.854,164.228Z" transform="translate(-97.067 -88.405)" fill="#f4a28c"/>
    <rect id="Rectangle_120" data-name="Rectangle 120" width="32.394" height="20.455" transform="translate(115.937 75.815)" fill="#6981bc"/>
    <path id="Path_622" data-name="Path 622" d="M209.509,166.412a14.638,14.638,0,0,0-1.128-4.845,6.17,6.17,0,0,0-5.656-3.577H198.6a4.4,4.4,0,0,0-4.4,4.4v4.152a2.471,2.471,0,0,0,2.471,2.471h0a4.288,4.288,0,0,0,4.288-4.288h0S203.307,167.714,209.509,166.412Z" transform="translate(-99.961 -84.831)" fill="#ffd6bb"/>
    <circle id="Ellipse_18" data-name="Ellipse 18" cx="1.763" cy="1.763" r="1.763" transform="translate(122.08 80.711)" fill="#4f4c5b"/>
    <circle id="Ellipse_19" data-name="Ellipse 19" cx="1.763" cy="1.763" r="1.763" transform="translate(128.458 80.711)" fill="#4f4c5b"/>
    <circle id="Ellipse_20" data-name="Ellipse 20" cx="1.763" cy="1.763" r="1.763" transform="translate(35.231 72.87)" fill="#4f4c5b"/>
  </g>
</svg>
