<svg xmlns="http://www.w3.org/2000/svg" xmlns:xlink="http://www.w3.org/1999/xlink" width="22.398" height="19.253" viewBox="0 0 22.398 19.253">
  <defs>
    <linearGradient id="linear-gradient" x1="0.815" y1="-0.25" x2="0.231" y2="1.222" gradientUnits="objectBoundingBox">
      <stop offset="0" stop-color="#a8cf45"/>
      <stop offset="1" stop-color="#00a859"/>
    </linearGradient>
  </defs>
  <g id="Layer_x0020_1" transform="translate(32 -1)">
    <g id="_1973729731808" transform="translate(-32 1)">
      <circle id="Ellipse_34" data-name="Ellipse 34" cx="9.626" cy="9.626" r="9.626" fill="url(#linear-gradient)"/>
      <path id="Path_700" data-name="Path 700" d="M.28,6.023l4.635,4.457L17.037.14" transform="translate(4.711 2.356)" fill="none" stroke="#fefefe" stroke-miterlimit="2.613" stroke-width="2" fill-rule="evenodd"/>
    </g>
  </g>
</svg>
