<svg xmlns="http://www.w3.org/2000/svg" width="20.222" height="22.245" viewBox="0 0 20.222 22.245">
  <g id="Group_126" data-name="Group 126" transform="translate(-0.378 -0.789)">
    <path id="Path_700" data-name="Path 700" d="M3.411,4.189A1.011,1.011,0,0,0,2.4,5.2V19.356a1.011,1.011,0,0,0,1.011,1.011H17.567a1.011,1.011,0,0,0,1.011-1.011V5.2a1.011,1.011,0,0,0-1.011-1.011ZM.378,5.2A3.033,3.033,0,0,1,3.411,2.167H17.567A3.033,3.033,0,0,1,20.6,5.2V19.356a3.033,3.033,0,0,1-3.033,3.033H3.411A3.033,3.033,0,0,1,.378,19.356Z" transform="translate(0 0.644)" fill="#006884" fill-rule="evenodd"/>
    <path id="Path_701" data-name="Path 701" d="M10.344.789A1.011,1.011,0,0,1,11.356,1.8V5.845a1.011,1.011,0,0,1-2.022,0V1.8A1.011,1.011,0,0,1,10.344.789Z" transform="translate(4.189 0)" fill="#006884" fill-rule="evenodd"/>
    <path id="Path_702" data-name="Path 702" d="M4.833.789A1.011,1.011,0,0,1,5.844,1.8V5.845a1.011,1.011,0,0,1-2.022,0V1.8A1.011,1.011,0,0,1,4.833.789Z" transform="translate(1.611 0)" fill="#006884" fill-rule="evenodd"/>
    <path id="Path_703" data-name="Path 703" d="M.378,7.311A1.011,1.011,0,0,1,1.389,6.3h18.2a1.011,1.011,0,0,1,0,2.022H1.389A1.011,1.011,0,0,1,.378,7.311Z" transform="translate(0 2.578)" fill="#006884" fill-rule="evenodd"/>
  </g>
</svg>
