<svg width="39" height="38" viewBox="0 0 39 38" fill="none" xmlns="http://www.w3.org/2000/svg">
<path d="M28.9559 23.6477C28.9559 26.3252 26.7597 28.5141 24.0732 28.5141H14.6802C11.974 28.5141 9.79738 26.3252 9.79738 23.6477V14.2863C9.79738 11.6089 11.974 9.41998 14.6802 9.41998H24.0732C26.7597 9.41998 28.9559 11.6089 28.9559 14.2863V23.6477ZM31.1718 14.2863C31.1718 10.3776 27.9951 7.19201 24.0732 7.19201H14.6802C10.7583 7.19201 7.56189 10.3776 7.56189 14.2863V23.6477C7.56189 27.5564 10.7583 30.7225 14.6802 30.7225H24.0732C27.9951 30.7225 31.1718 27.5564 31.1718 23.6477V14.2863ZM19.4061 22.8464C17.3471 22.8464 15.6803 21.1657 15.6803 19.1136C15.6803 17.0615 17.3471 15.4003 19.4061 15.4003C21.4651 15.4003 23.1515 17.0615 23.1515 19.1136C23.1515 21.1657 21.4651 22.8464 19.4061 22.8464ZM19.4061 13.3092C16.1901 13.3092 13.582 15.9085 13.582 19.1136C13.582 22.3188 16.1901 24.9376 19.4061 24.9376C22.622 24.9376 25.2497 22.3188 25.2497 19.1136C25.2497 15.9085 22.622 13.3092 19.4061 13.3092ZM25.5831 11.5307C24.8183 11.5307 24.1908 12.1561 24.1908 12.9183C24.1908 13.6805 24.8183 14.3059 25.5831 14.3059C26.3479 14.3059 26.9754 13.6805 26.9754 12.9183C26.9754 12.1561 26.3479 11.5307 25.5831 11.5307ZM19.2688 2.2084C9.89543 2.2084 2.28691 9.79131 2.28691 19.1136C2.28691 28.4554 9.89543 36.0384 19.2688 36.0384C28.6226 36.0384 36.2311 28.4554 36.2311 19.1136C36.2311 9.79131 28.6226 2.2084 19.2688 2.2084ZM19.2688 37.8168C8.91495 37.8168 0.502441 29.4326 0.502441 19.1136C0.502441 8.81413 8.91495 0.429932 19.2688 0.429932C29.6031 0.429932 38.0156 8.81413 38.0156 19.1136C38.0156 29.4326 29.6031 37.8168 19.2688 37.8168Z" fill="white"/>
</svg>
