<svg width="91" height="91" viewBox="0 0 91 91" fill="none" xmlns="http://www.w3.org/2000/svg">
<g filter="url(#filter0_d)">
<path d="M45.6305 3C37.5946 3 29.7391 5.38294 23.0574 9.84747C16.3758 14.312 11.1681 20.6576 8.09283 28.0819C5.0176 35.5061 4.21298 43.6756 5.78072 51.5571C7.34846 59.4387 11.2181 66.6783 16.9004 72.3606C22.5827 78.0429 29.8224 81.9126 37.7039 83.4803C45.5855 85.048 53.7549 84.2434 61.1791 81.1682C68.6034 78.093 74.949 72.8853 79.4136 66.2036C83.8781 59.522 86.261 51.6665 86.261 43.6305C86.261 32.8546 81.9803 22.5201 74.3606 14.9004C66.7409 7.2807 56.4064 3 45.6305 3ZM45.6305 79.1822C38.5991 79.1822 31.7255 77.0971 25.8791 73.1907C20.0326 69.2842 15.4759 63.7318 12.785 57.2355C10.0942 50.7393 9.39018 43.5911 10.7619 36.6947C12.1337 29.7984 15.5197 23.4637 20.4917 18.4917C25.4637 13.5197 31.7984 10.1337 38.6947 8.76193C45.5911 7.39016 52.7393 8.0942 59.2356 10.785C65.7318 13.4758 71.2842 18.0326 75.1907 23.879C79.0972 29.7255 81.1822 36.599 81.1822 43.6305C81.1822 53.0594 77.4366 62.1021 70.7694 68.7693C64.1021 75.4366 55.0594 79.1822 45.6305 79.1822Z" fill="url(#paint0_linear)"/>
<path d="M71.0247 28.648C70.5489 28.175 69.9053 27.9096 69.2344 27.9096C68.5636 27.9096 67.9199 28.175 67.4442 28.648L39.2567 56.7084L24.0203 41.472C23.5556 40.9703 22.9106 40.6737 22.2272 40.6475C21.5438 40.6213 20.878 40.8676 20.3762 41.3323C19.8745 41.797 19.5779 42.442 19.5517 43.1254C19.5255 43.8088 19.7719 44.4746 20.2366 44.9764L39.2567 63.9458L71.0247 32.254C71.2627 32.0179 71.4516 31.737 71.5806 31.4276C71.7095 31.1181 71.7759 30.7862 71.7759 30.451C71.7759 30.1158 71.7095 29.7838 71.5806 29.4744C71.4516 29.1649 71.2627 28.8841 71.0247 28.648Z" fill="url(#paint1_linear)"/>
</g>
<defs>
<filter id="filter0_d" x="0.513196" y="0.307918" width="90.2346" height="90.2346" filterUnits="userSpaceOnUse" color-interpolation-filters="sRGB">
<feFlood flood-opacity="0" result="BackgroundImageFix"/>
<feColorMatrix in="SourceAlpha" type="matrix" values="0 0 0 0 0 0 0 0 0 0 0 0 0 0 0 0 0 0 127 0"/>
<feOffset dy="1.79472"/>
<feGaussianBlur stdDeviation="2.2434"/>
<feColorMatrix type="matrix" values="0 0 0 0 0 0 0 0 0 0 0 0 0 0 0 0 0 0 0.15 0"/>
<feBlend mode="normal" in2="BackgroundImageFix" result="effect1_dropShadow"/>
<feBlend mode="normal" in="SourceGraphic" in2="effect1_dropShadow" result="shape"/>
</filter>
<linearGradient id="paint0_linear" x1="45.6305" y1="3" x2="113.626" y2="89.9006" gradientUnits="userSpaceOnUse">
<stop stop-color="#F2C94C"/>
<stop offset="0.819842" stop-color="#F7941E"/>
</linearGradient>
<linearGradient id="paint1_linear" x1="45.6628" y1="27.9096" x2="71.6359" y2="76.0174" gradientUnits="userSpaceOnUse">
<stop stop-color="#F2C94C"/>
<stop offset="0.819842" stop-color="#F7941E"/>
</linearGradient>
</defs>
</svg>
