<svg xmlns="http://www.w3.org/2000/svg" width="50" height="50" viewBox="0 0 50 50">
  <g id="Group_117" data-name="Group 117" transform="translate(-540.176 -185.33)">
    <circle id="Ellipse_5" data-name="Ellipse 5" cx="25" cy="25" r="25" transform="translate(540.176 185.33)" fill="#fefefe"/>
    <path id="Path_526" data-name="Path 526" d="M559.22,208.12c.61,2.56,3.89,5.72,6.33,6.32a2.308,2.308,0,0,0,2.67-1.45h0a2.265,2.265,0,0,1,3.77-.86l3.4,3.41a2.2,2.2,0,0,1,.64,1.59v.01a2.525,2.525,0,0,1-.64,1.68l-2.31,2.31a3.4,3.4,0,0,1-2.5.9h0c-3.11,0-7.8-2.57-12.09-6.86-5.71-5.71-8.26-12.15-5.95-14.58l2.31-2.31a2.182,2.182,0,0,1,1.5-.64h.19a2.527,2.527,0,0,1,1.59.64l3.4,3.4a2.264,2.264,0,0,1-.85,3.77h0a2.207,2.207,0,0,0-1.46,2.67Z" transform="translate(1.32 0.5)" fill="#f05a22" fill-rule="evenodd"/>
  </g>
</svg>
