<svg id="Group_127" data-name="Group 127" xmlns="http://www.w3.org/2000/svg" width="39.024" height="39.024" viewBox="0 0 39.024 39.024">
  <path id="Path_595" data-name="Path 595" d="M19.512,0A19.512,19.512,0,1,1,0,19.512,19.512,19.512,0,0,1,19.512,0Z" fill="#7a7a7a" opacity="0.3"/>
  <path id="Path_594" data-name="Path 594" d="M91.717,10.1a1.952,1.952,0,0,0,.211-2.795,2,2,0,0,0-2.795-.264L77.215,17.223h-.053l-.105.105h0c-.053.053-.105.158-.158.211h0l-.105.105V17.7H76.74v.053l-.053.053v.053l-.053.053v.053l-.053.053v.053l-.053.105v.158l-.053.053v.738l.053.053v.158l.053.105v.053l.053.053V19.6l.053.053V19.7l.053.053v.053h.053v.053l.105.105h0c.053.053.105.158.158.211h0c.053.053.105.105.158.105L89.133,30.459a2,2,0,0,0,2.795-.264,1.952,1.952,0,0,0-.211-2.795L81.539,18.752,91.717,10.1Z" transform="translate(-66.615 0.76)" fill="#fefefe" fill-rule="evenodd"/>
</svg>
