<svg xmlns="http://www.w3.org/2000/svg" width="127.992" height="127.996" viewBox="0 0 127.992 127.996">
  <g id="tick" transform="translate(-0.008)">
    <path id="Path_708" data-name="Path 708" d="M127.668,62.454a50.339,50.339,0,0,0-6.112-9.851,50.244,50.244,0,0,0,1.875-11.443,3.736,3.736,0,0,0-1.183-2.856,57.336,57.336,0,0,0-9.665-6.764,50.349,50.349,0,0,0-2.648-11.29,3.751,3.751,0,0,0-2.182-2.182,44.5,44.5,0,0,0-11.29-2.9A50.481,50.481,0,0,0,89.7,5.751a3.407,3.407,0,0,0-2.856-1.179A50.24,50.24,0,0,0,75.4,6.447,50.365,50.365,0,0,0,65.549.335a3.732,3.732,0,0,0-3.091,0,50.339,50.339,0,0,0-9.851,6.112A50.244,50.244,0,0,0,41.165,4.572a3.348,3.348,0,0,0-2.856,1.179,50.471,50.471,0,0,0-6.764,9.419,44.5,44.5,0,0,0-11.29,2.9,3.751,3.751,0,0,0-2.182,2.182,44.5,44.5,0,0,0-2.9,11.29A50.481,50.481,0,0,0,5.756,38.3a3.756,3.756,0,0,0-1.179,2.856A50.24,50.24,0,0,0,6.452,52.6,50.347,50.347,0,0,0,.34,62.454a3.76,3.76,0,0,0,0,3.091,50.339,50.339,0,0,0,6.112,9.851A50.244,50.244,0,0,0,4.577,86.838a3.756,3.756,0,0,0,1.179,2.856,50.471,50.471,0,0,0,9.419,6.764,44.5,44.5,0,0,0,2.9,11.29,3.747,3.747,0,0,0,2.186,2.182,50.287,50.287,0,0,0,11.286,2.648,57.307,57.307,0,0,0,6.764,9.665,3.539,3.539,0,0,0,2.856,1.183,50.2,50.2,0,0,0,11.44-1.875,50.64,50.64,0,0,0,9.854,6.112,3.75,3.75,0,0,0,3.091,0,50.549,50.549,0,0,0,9.851-6.112,50.244,50.244,0,0,0,11.443,1.875,3.53,3.53,0,0,0,2.856-1.183,50.346,50.346,0,0,0,6.764-9.415,44.443,44.443,0,0,0,11.286-2.9,3.747,3.747,0,0,0,2.186-2.182,44.5,44.5,0,0,0,2.9-11.29,50.323,50.323,0,0,0,9.415-6.764,3.735,3.735,0,0,0,1.183-2.856,50.24,50.24,0,0,0-1.875-11.443,50.347,50.347,0,0,0,6.112-9.851,3.759,3.759,0,0,0,0-3.09Z" fill="#eee"/>
    <path id="Path_709" data-name="Path 709" d="M257.549,127.663a50.549,50.549,0,0,0,9.851-6.112,50.243,50.243,0,0,0,11.443,1.875,3.53,3.53,0,0,0,2.856-1.183,50.347,50.347,0,0,0,6.764-9.415,44.443,44.443,0,0,0,11.286-2.9,3.747,3.747,0,0,0,2.186-2.182,44.5,44.5,0,0,0,2.9-11.29,50.324,50.324,0,0,0,9.415-6.764,3.735,3.735,0,0,0,1.183-2.856A50.242,50.242,0,0,0,313.556,75.4a50.347,50.347,0,0,0,6.112-9.851,3.76,3.76,0,0,0,0-3.091,50.339,50.339,0,0,0-6.112-9.851,50.246,50.246,0,0,0,1.875-11.443,3.736,3.736,0,0,0-1.183-2.856,57.337,57.337,0,0,0-9.665-6.764,50.345,50.345,0,0,0-2.648-11.29,3.751,3.751,0,0,0-2.182-2.182,44.5,44.5,0,0,0-11.29-2.9A50.482,50.482,0,0,0,281.7,5.752a3.407,3.407,0,0,0-2.856-1.179A50.24,50.24,0,0,0,267.4,6.447,50.346,50.346,0,0,0,257.549.335,3.731,3.731,0,0,0,256,0V128a3.734,3.734,0,0,0,1.545-.333Z" transform="translate(-192 0)" fill="#eee"/>
    <path id="Path_710" data-name="Path 710" d="M138.4,95.807a38.331,38.331,0,0,0,5.475-7.983,38.347,38.347,0,0,0-5.475-7.983,3.756,3.756,0,0,1-.776-3.9,38.319,38.319,0,0,0,2-9.477,40.922,40.922,0,0,0-8.365-5.281,3.758,3.758,0,0,1-2.208-3.307,38.013,38.013,0,0,0-1.772-9.517,38.307,38.307,0,0,0-9.521-1.776,3.764,3.764,0,0,1-3.307-2.208,40.824,40.824,0,0,0-5.281-8.365,38.32,38.32,0,0,0-9.477,2,3.735,3.735,0,0,1-3.9-.776,38.331,38.331,0,0,0-7.983-5.475,38.347,38.347,0,0,0-7.983,5.475,3.764,3.764,0,0,1-3.9.776,38.32,38.32,0,0,0-9.477-2,40.824,40.824,0,0,0-5.281,8.365,3.764,3.764,0,0,1-3.307,2.208,38.012,38.012,0,0,0-9.517,1.772,38.307,38.307,0,0,0-1.776,9.521,3.764,3.764,0,0,1-2.208,3.307,40.824,40.824,0,0,0-8.365,5.281,38.32,38.32,0,0,0,2,9.477,3.757,3.757,0,0,1-.776,3.9,38.331,38.331,0,0,0-5.475,7.983,38.347,38.347,0,0,0,5.475,7.983,3.756,3.756,0,0,1,.776,3.9,38.32,38.32,0,0,0-2,9.477,40.824,40.824,0,0,0,8.365,5.281,3.764,3.764,0,0,1,2.208,3.307,38.012,38.012,0,0,0,1.772,9.517,38.461,38.461,0,0,0,9.525,1.78,3.754,3.754,0,0,1,3.3,2.2,40.922,40.922,0,0,0,5.281,8.365,38.3,38.3,0,0,0,9.474-2,3.755,3.755,0,0,1,3.893.773,38.635,38.635,0,0,0,7.99,5.478,38.488,38.488,0,0,0,7.987-5.475,3.753,3.753,0,0,1,3.893-.776,38.319,38.319,0,0,0,9.477,2,40.921,40.921,0,0,0,5.281-8.365,3.752,3.752,0,0,1,3.3-2.2,38.462,38.462,0,0,0,9.521-1.78,38.274,38.274,0,0,0,1.776-9.517,3.758,3.758,0,0,1,2.208-3.307,40.922,40.922,0,0,0,8.365-5.281,38.319,38.319,0,0,0-2-9.477,3.758,3.758,0,0,1,.776-3.9Z" transform="translate(-23.816 -23.825)" fill="#ec5b2d"/>
    <path id="Path_711" data-name="Path 711" d="M267.882,137.632a38.32,38.32,0,0,0,9.477,2,40.92,40.92,0,0,0,5.28-8.365,3.752,3.752,0,0,1,3.3-2.2,38.462,38.462,0,0,0,9.521-1.78,38.274,38.274,0,0,0,1.776-9.517,3.758,3.758,0,0,1,2.208-3.307,40.922,40.922,0,0,0,8.365-5.281,38.319,38.319,0,0,0-2-9.477,3.757,3.757,0,0,1,.776-3.9,38.331,38.331,0,0,0,5.474-7.983,38.347,38.347,0,0,0-5.474-7.983,3.756,3.756,0,0,1-.776-3.9,38.319,38.319,0,0,0,2-9.477,40.922,40.922,0,0,0-8.365-5.281,3.758,3.758,0,0,1-2.208-3.307,38.012,38.012,0,0,0-1.772-9.517,38.307,38.307,0,0,0-9.521-1.776,3.764,3.764,0,0,1-3.307-2.208,40.823,40.823,0,0,0-5.28-8.365,38.32,38.32,0,0,0-9.477,2,3.735,3.735,0,0,1-3.9-.776A38.332,38.332,0,0,0,256,31.767V143.883a38.489,38.489,0,0,0,7.987-5.474,3.753,3.753,0,0,1,3.893-.776Z" transform="translate(-191.998 -23.826)" fill="#ef6e2c"/>
    <path id="Path_712" data-name="Path 712" d="M194.367,161.641l-10.609-10.605a3.749,3.749,0,0,0-5.3,0L165.2,164.295l-7.5,7.5-5.76-5.76a3.749,3.749,0,0,0-5.3,0L136.032,176.64a3.749,3.749,0,0,0,0,5.3l19.016,19.016a3.749,3.749,0,0,0,5.3,0l4.849-4.849,29.167-29.167a3.748,3.748,0,0,0,0-5.3Z" transform="translate(-101.196 -112.455)" fill="#eee"/>
    <path id="Path_713" data-name="Path 713" d="M286.269,164.293a3.747,3.747,0,0,0-1.1-2.651l-10.609-10.605a3.749,3.749,0,0,0-5.3,0L256,164.3v31.816l29.167-29.167a3.746,3.746,0,0,0,1.1-2.651Z" transform="translate(-191.999 -112.456)" fill="#fff"/>
  </g>
</svg>
