<svg id="LOGO_BNI_LIFE" data-name="LOGO BNI LIFE" xmlns="http://www.w3.org/2000/svg" width="84.295" height="46.481" viewBox="0 0 84.295 46.481">
  <path id="Path_561" data-name="Path 561" d="M1268.292,42.237h-2.276V33.009a2.771,2.771,0,0,0,1.183.09c3.149-.375,8.044.351,8.044,4.234a3.977,3.977,0,0,1-.767,2.88C1272.992,41.886,1270.74,42.237,1268.292,42.237Zm-.228-11.4h-2.048V23.782c1.942,0,4.177-.228,5.784.816a3.426,3.426,0,0,1-.024,5.515,7.232,7.232,0,0,1-3.712.726Zm-5.695-5.352V40.637a6.143,6.143,0,0,1-.424,2.431,2.68,2.68,0,0,1-1.012,1.142c-.408.286-.261.073-.383.416,4.071,0,8.844.294,12.344-.408a8.547,8.547,0,0,0,2.4-.791,7.686,7.686,0,0,0,1.868-1.322,6.211,6.211,0,0,0,.334-8.958,8.2,8.2,0,0,0-1.664-1.191l-2.072-.775c4.789-1.11,4.748-9.113-2.5-9.562-3.361-.2-7.163-.114-10.7-.114.228.873,1.819.571,1.819,3.981Z" transform="translate(-1231.269 -21.486)" fill="#006885" fill-rule="evenodd"/>
  <path id="Path_562" data-name="Path 562" d="M1288.363,24.7V41.556c0,2.252-1.485,2.448-1.713,3.076h6.266c-.383-.571-1.656-.873-1.819-2.97-.106-1.411,0-3.3,0-4.781V27.2l6.494,8.656c.294.416.612.759.93,1.232,1.4,2.048,2.48,3.182,3.786,4.871a28.419,28.419,0,0,0,3.386,3.108,3.3,3.3,0,0,0,1.46.808V26.291a8.57,8.57,0,0,1,.31-2.994,4.111,4.111,0,0,1,.636-.963c.457-.506.734-.294.881-.824h-6.266c.188.7,1.64.62,1.819,2.962.106,1.428,0,3.3,0,4.781v9.684l-12.026-16.219c-.179-.261-.237-.31-.391-.522a3.325,3.325,0,0,1-.335-.685h-5.132c.179.653.481.294,1.15,1.248a3.847,3.847,0,0,1,.563,1.942Z" transform="translate(-1236.075 -21.49)" fill="#006885" fill-rule="evenodd"/>
  <path id="Path_563" data-name="Path 563" d="M1320.587,26.748c0,2.268.22,14.473-.294,15.991-.449,1.3-1.346,1.379-1.534,1.893h7.294c-.2-.563-.563-.147-1.322-1.411a4.241,4.241,0,0,1-.5-2.235V25.263a3.953,3.953,0,0,1,1.052-3.043c.359-.318.645-.253.767-.71h-7.294c.285,1.044,1.827-.033,1.827,5.238Z" transform="translate(-1241.988 -21.49)" fill="#006885" fill-rule="evenodd"/>
  <path id="Path_564" data-name="Path 564" d="M1224.66,25.491c0,.277,5.205,6.543,5.687,7.2.522.7,3.3,3.965,3.427,4.422.5-.041.6-.31,1.305-.857a5.854,5.854,0,0,1,1.313-.963c-.041-.538-1.159-1.705-1.5-2.252-.269-.432-.481-.767-.734-1.2-1.55-2.6-3.043-5.98-2.431-9.309a8.987,8.987,0,0,0,.229-1.02h-7.294Z" transform="translate(-1224.66 -21.49)" fill="#f15922" fill-rule="evenodd"/>
  <path id="Path_565" data-name="Path 565" d="M1320.135,65.051h.677a1.9,1.9,0,0,1,1.6,1.934V67.9h-4.552c.024-1.46.791-2.847,2.276-2.847Zm-5.695,3.639c0,2.195.245,3.606,1.844,5.213,2.57,2.578,6.2,1.9,9.089.367l-.914-1.705c-.424.114-.742.432-1.322.612-2.668.832-5.278-.106-5.278-3.459h7.628c0-2.529-.3-4.969-2.847-6.152C1319.376,62.04,1314.44,64.43,1314.44,68.689Z" transform="translate(-1241.192 -29.149)" fill="#f7941d" fill-rule="evenodd"/>
  <path id="Path_566" data-name="Path 566" d="M1242.67,31.157a5.812,5.812,0,0,0,1.118,4.006,11.413,11.413,0,0,0,1.819,2.17,6.083,6.083,0,0,0,2.374,1.615c1.232.432,3.125.269,3.125-.392V29.9c0-.481-2.391-2.39-4.1-2.39h-.571c-1.632,0-3.761,1.991-3.761,3.647Z" transform="translate(-1227.976 -22.595)" fill="#f15922" fill-rule="evenodd"/>
  <path id="Path_567" data-name="Path 567" d="M1287.21,74.3h9.913V72.021h-6.494V58.013c0-.269-.082-.343-.343-.343h-3.076Z" transform="translate(-1236.178 -28.149)" fill="#f7941d" fill-rule="evenodd"/>
  <path id="Path_568" data-name="Path 568" d="M1306.628,61.469v.8H1304.8v1.705h1.942c-.277.49-.114,8.885-.114,10.141h3.3V63.974c3.337,0,2.855.375,2.855-1.362,0-.6-1.207-.343-2.855-.343,0-1.632-.31-3.108.93-3.516.783-.261,1.159.033,1.925.1a7.82,7.82,0,0,0,.449-1.705c-1.411-.334-2.586-.832-4.251-.041a3.244,3.244,0,0,0-1.313.963,4.831,4.831,0,0,0-1.036,3.4Z" transform="translate(-1239.417 -27.967)" fill="#f7941d" fill-rule="evenodd"/>
  <path id="Path_569" data-name="Path 569" d="M1236.95,23.211c0,2.611,1.762,7.025,3.19,7.971a7.351,7.351,0,0,1,7.065-7.057,9.874,9.874,0,0,1,2.847.571c0-3.059.343-3.214-.791-3.206l-12.083.016a8.284,8.284,0,0,0-.228,1.705Z" transform="translate(-1226.923 -21.487)" fill="#f15922" fill-rule="evenodd"/>
  <path id="Path_570" data-name="Path 570" d="M1243.61,46.6Zm0,0c-.277.416-1.175.914-1.485,1.371h7.979V42.507c-1.093.253-3.051,1.664-6.078.375a14.17,14.17,0,0,1-4.291-3.223,4.722,4.722,0,0,0-1.265.9c-.2.147-.383.294-.571.449-.31.261-.261.367-.669.473.041.449.22.506.506.865l1.917,2.407A4.188,4.188,0,0,0,1243.61,46.6Z" transform="translate(-1226.975 -24.832)" fill="#f15922" fill-rule="evenodd"/>
  <path id="Path_571" data-name="Path 571" d="M1224.66,46.611c1.028-.685,6.592-5.458,7.065-5.58-.53-.791-1.142-1.436-1.705-2.162-.587-.751-1.167-1.436-1.779-2.219s-1.2-1.436-1.771-2.211l-1.811-2.178V46.611Z" transform="translate(-1224.66 -23.47)" fill="#f15922" fill-rule="evenodd"/>
  <path id="Path_572" data-name="Path 572" d="M1300.2,75.376h3.3v-11.5c0-.261-.073-.343-.335-.343H1300.2Z" transform="translate(-1238.57 -29.228)" fill="#f7941d" fill-rule="evenodd"/>
  <path id="Path_573" data-name="Path 573" d="M1228.01,48.706h8.885c-.229-1-2.529-3.467-3.182-4.446a22.248,22.248,0,0,0-2.864,2.154Z" transform="translate(-1225.277 -25.68)" fill="#f15922" fill-rule="evenodd"/>
  <path id="Path_574" data-name="Path 574" d="M1299.92,58.561v.571a1.91,1.91,0,0,0,2.048,1.713,1.973,1.973,0,0,0,1.705-2.17c0-.963-.873-1.705-2.162-1.705A1.869,1.869,0,0,0,1299.92,58.561Z" transform="translate(-1238.519 -28.02)" fill="#f7941d" fill-rule="evenodd"/>
</svg>
